"Time_Iter","Outer_Iter","Inner_Iter",    "rms[Rho]"    ,    "rms[RhoU]"   ,    "rms[RhoV]"   ,    "rms[RhoE]"   ,     "rms[nu]"    
          0,           0,           0,      -1.697541744,      0.7486423266,      0.6092687049,       3.761861504,      -5.443927485
          0,           0,           1,      -1.891824231,      0.5616502658,      0.4375644538,       3.566935948,       -5.62564508
          0,           0,           2,      -2.015993078,      0.4277445326,      0.3282202903,        3.44693519,      -5.811481833
          0,           0,           3,      -2.086617621,      0.3334978571,      0.2754587135,       3.382565715,      -5.827252048
          0,           0,           4,      -2.129204693,      0.2675437542,       0.255444386,       3.346183675,      -5.849125849
          0,           0,           5,      -2.157864667,      0.2219170451,      0.2422266784,       3.322860298,      -5.874045211
          0,           0,           6,      -2.182471991,      0.1872820283,      0.2253294579,       3.302467134,       -5.89730455
          0,           0,           7,      -2.206679583,      0.1578342583,      0.2040260012,        3.28149044,      -5.918546527
          0,           0,           8,      -2.230489893,      0.1312459719,      0.1810211062,        3.26010608,      -5.936067024
          0,           0,           9,      -2.253079752,      0.1067524939,       0.159081423,       3.239272281,      -5.951333657
          0,           0,          10,      -2.273973114,     0.08404870481,      0.1396570333,       3.219574159,      -5.965900308
          0,           0,          11,      -2.293235338,     0.06286944878,      0.1228632187,       3.201038396,        -5.9804237
          0,           0,          12,      -2.311256732,     0.04290156366,      0.1081058151,       3.183348196,      -5.995225705
          0,           0,          13,      -2.328493191,     0.02382210321,     0.09469819028,       3.166108839,      -6.010353907
          0,           0,          14,      -2.344972833,    0.005339702411,     0.08235740423,       3.149058591,      -6.025708528
          0,           0,          15,      -2.357925566,      -0.012786406,     0.07306438801,       3.132608222,      -6.040679508
          0,           0,          16,      -2.359406754,    -0.03071334512,     0.07176074721,       3.118243428,      -6.053536544
          0,           0,          17,      -2.353354154,    -0.04836658503,     0.07573680038,       3.105392101,      -6.062553828
          0,           0,          18,      -2.356671222,    -0.06562709054,     0.07002794584,       3.089969873,      -6.070896028
          0,           0,          19,      -2.369842944,    -0.08249448725,      0.0524505965,       3.071810291,      -6.081280596
          0,           0,          20,      -2.384865764,    -0.09925046847,     0.03045485939,       3.053604896,      -6.093131831
          0,           0,          21,      -2.397227554,     -0.1164020947,     0.01114908492,       3.037591515,      -6.104782252
          0,           0,          22,      -2.408685551,     -0.1344215185,   -0.005219566133,       3.023641508,      -6.115742436
          0,           0,          23,      -2.421031407,     -0.1536003384,    -0.02065520261,       3.010764398,      -6.126271065
          0,           0,          24,      -2.434112415,     -0.1740199459,    -0.03583969657,       2.998242396,      -6.136667489
          0,           0,          25,      -2.447164488,     -0.1954855559,    -0.05048884605,       2.985629485,      -6.147084189
          0,           0,          26,      -2.459731197,     -0.2173595732,    -0.06431015113,       2.972587965,      -6.157573895
          0,           0,          27,      -2.471709242,     -0.2383708033,    -0.07739189283,       2.958855323,      -6.168161133
          0,           0,          28,      -2.483178713,     -0.2565846182,     -0.0901717892,       2.944249453,      -6.178906456
          0,           0,          29,      -2.494670798,     -0.2697977338,     -0.1032085095,       2.928515703,      -6.189898812
          0,           0,          30,      -2.506325505,     -0.2764377949,     -0.1169385605,       2.911513651,      -6.201198874
          0,           0,          31,      -2.518263344,     -0.2765178567,     -0.1314222366,       2.893119869,      -6.212775487
          0,           0,          32,      -2.530514043,     -0.2718773613,     -0.1462627834,       2.873311888,      -6.224411779
          0,           0,          33,      -2.542910968,     -0.2654784425,     -0.1607182733,       2.852313853,      -6.235711061
          0,           0,          34,      -2.555075687,     -0.2603558983,     -0.1739646011,       2.830739153,      -6.246096089
          0,           0,          35,      -2.566450513,     -0.2588925338,     -0.1854310836,       2.809666036,      -6.254988095
          0,           0,          36,      -2.576431465,      -0.262574471,     -0.1950494667,        2.79055551,      -6.261964322
          0,           0,          37,      -2.584547389,     -0.2720351425,     -0.2032747791,       2.774939534,      -6.266940463
          0,           0,          38,      -2.590643386,     -0.2871796829,      -0.210870737,       2.763925096,       -6.27028735
          0,           0,          39,      -2.594974425,     -0.3072882029,     -0.2185873632,       2.757745353,      -6.272709119
          0,           0,          40,      -2.598157061,       -0.33108827,      -0.226885576,       2.755650295,      -6.275102858
          0,           0,          41,      -2.601512708,      -0.356845536,     -0.2367026976,       2.755994677,      -6.278282692
          0,           0,          42,      -2.605024031,     -0.3825587691,     -0.2464993275,       2.757603042,      -6.282935564
          0,           0,          43,      -2.609764997,     -0.4062927497,     -0.2558370842,       2.758971294,      -6.289519527
          0,           0,          44,      -2.616049165,     -0.4266202439,     -0.2639666005,       2.759218617,      -6.298215048
          0,           0,          45,      -2.623991617,     -0.4429671293,     -0.2701282673,       2.757872061,      -6.308997446
          0,           0,          46,      -2.633426895,     -0.4556504333,     -0.2737590125,       2.754761296,      -6.321708516
          0,           0,          47,      -2.644036083,     -0.4655638996,     -0.2745094486,       2.749830989,      -6.336124266
          0,           0,          48,      -2.656199344,     -0.4736980906,     -0.2734802616,       2.742720952,      -6.351852961
          0,           0,          49,      -2.668264896,     -0.4807615777,     -0.2685383978,       2.733734726,      -6.368696428
          0,           0,          50,      -2.680832702,     -0.4869179638,     -0.2604631279,       2.722245433,      -6.386409176
          0,           0,          51,      -2.694460411,     -0.4917976691,     -0.2502241175,         2.7076095,      -6.404539084
          0,           0,          52,      -2.709096873,     -0.4946826717,     -0.2381659679,       2.689413932,      -6.422359609
          0,           0,          53,      -2.724580682,     -0.4947703341,     -0.2247154924,        2.66739253,      -6.438968226
          0,           0,          54,      -2.740932371,     -0.4914844275,     -0.2105831543,       2.641444948,      -6.452938204
          0,           0,          55,      -2.758171377,     -0.4847149464,     -0.1966705852,       2.611876648,      -6.462828348
          0,           0,          56,      -2.776041091,      -0.474891276,     -0.1837986404,       2.579747312,      -6.467455808
          0,           0,          57,       -2.79392905,     -0.4628682211,     -0.1726552699,       2.547238539,      -6.466124646
          0,           0,          58,        -2.8107136,      -0.449701223,     -0.1636730305,        2.51801519,      -6.458902143
          0,           0,          59,      -2.824971639,      -0.436415577,     -0.1570659303,       2.496907939,      -6.446540881
          0,           0,          60,      -2.835263196,     -0.4238417081,     -0.1528269047,       2.488416581,      -6.430444257
          0,           0,          61,      -2.840590044,     -0.4125320003,     -0.1507762898,       2.494330398,      -6.412161227
          0,           0,          62,      -2.840727286,     -0.4027414776,     -0.1505941719,       2.512567807,      -6.393234205
          0,           0,          63,      -2.836308605,     -0.3944484194,     -0.1518577063,        2.53850371,      -6.374882529
          0,           0,          64,      -2.828631155,     -0.3874049975,     -0.1540886828,       2.567289048,      -6.358075899
          0,           0,          65,       -2.81922861,     -0.3812120839,     -0.1568164045,       2.595351809,      -6.343345802
          0,           0,          66,      -2.809492639,     -0.3754041597,     -0.1596239576,       2.620624559,      -6.330962741
          0,           0,          67,      -2.800473053,     -0.3695476032,     -0.1621871748,       2.642173676,      -6.320973783
          0,           0,          68,      -2.792859689,     -0.3633327087,     -0.1643118123,       2.659770294,      -6.313240255
          0,           0,          69,      -2.786912831,     -0.3566307691,     -0.1658832207,       2.673615294,      -6.307544335
          0,           0,          70,      -2.782755599,     -0.3495034201,     -0.1669319732,       2.684077547,      -6.303550443
          0,           0,          71,      -2.780192693,     -0.3421686987,     -0.1674880522,        2.69164483,      -6.301039598
          0,           0,          72,      -2.778991702,      -0.334940361,     -0.1676277115,        2.69678669,      -6.299799074
          0,           0,          73,      -2.778937414,     -0.3281617646,     -0.1674456019,       2.699908308,      -6.299683326
          0,           0,          74,      -2.779705427,     -0.3221512801,     -0.1669603848,       2.701367599,      -6.300544167
          0,           0,          75,      -2.781092346,     -0.3171676031,     -0.1662168697,       2.701415499,      -6.302323055
          0,           0,          76,      -2.782929754,     -0.3133954766,     -0.1652569972,       2.700232617,      -6.304919945
          0,           0,          77,      -2.784930093,      -0.310947718,     -0.1640492756,       2.697994035,      -6.308286091
          0,           0,          78,      -2.786896989,     -0.3098789668,     -0.1626123395,       2.694851128,      -6.312319238
          0,           0,          79,      -2.788615584,     -0.3102062863,     -0.1609690943,       2.690995565,      -6.316895336
          0,           0,          80,      -2.789985064,     -0.3119323985,     -0.1592868017,       2.686658431,      -6.321887973
          0,           0,          81,      -2.790724947,     -0.3150675849,     -0.1577358784,       2.682204593,      -6.327087524
          0,           0,          82,      -2.790588775,     -0.3196465003,     -0.1565519539,       2.678078831,      -6.332270437
          0,           0,          83,      -2.789125782,     -0.3257374081,     -0.1558935397,       2.674845118,      -6.337063119
          0,           0,          84,      -2.786057259,     -0.3334417133,     -0.1558964251,       2.673035107,      -6.341093473
          0,           0,          85,      -2.781357612,     -0.3428831835,     -0.1567220588,       2.673051201,       -6.34399603
          0,           0,          86,      -2.775127735,     -0.3541881902,     -0.1584541607,       2.675130533,      -6.345389501
          0,           0,          87,      -2.767560269,     -0.3674608155,     -0.1610973682,       2.679308692,      -6.345018502
          0,           0,          88,      -2.759154838,     -0.3827474665,     -0.1647389951,       2.685361191,      -6.342815447
          0,           0,          89,      -2.750287179,     -0.3999977459,     -0.1693733854,       2.692970551,      -6.338849938
          0,           0,          90,        -2.7413962,     -0.4190162699,     -0.1750933584,       2.701739877,      -6.333159257
          0,           0,          91,      -2.732843533,     -0.4394076615,     -0.1820459801,       2.711295087,      -6.325828096
          0,           0,          92,      -2.724888969,     -0.4605194198,     -0.1904528929,       2.721329127,      -6.316980195
          0,           0,          93,      -2.717702032,     -0.4813990071,     -0.2006202058,       2.731604932,      -6.306762921
          0,           0,          94,      -2.711383498,     -0.5007976576,     -0.2129342046,       2.741933538,      -6.295402847
          0,           0,          95,      -2.705978232,     -0.5172678161,     -0.2278274223,       2.752145502,       -6.28323896
          0,           0,          96,      -2.701547084,     -0.5293906863,     -0.2457994203,       2.762047808,      -6.270659968
          0,           0,          97,      -2.698064626,      -0.536109098,     -0.2672801747,       2.771440265,      -6.258079554
          0,           0,          98,      -2.695555152,     -0.5370421071,     -0.2926368696,       2.780077304,       -6.24591833
          0,           0,          99,      -2.694147037,      -0.532609018,     -0.3222688187,       2.787667596,      -6.234588943
          0,           0,         100,      -2.693929921,     -0.5238862893,     -0.3564128523,       2.793929198,      -6.224425178
          0,           0,         101,      -2.695019278,     -0.5122822139,     -0.3951426994,       2.798589496,      -6.215710614
          0,           0,         102,      -2.697513805,     -0.4992010704,     -0.4381713063,       2.801409977,      -6.208647373
          0,           0,         103,      -2.701495037,      -0.485818917,     -0.4846030216,        2.80219545,      -6.203383778
          0,           0,         104,      -2.707022335,     -0.4729911338,     -0.5325397288,       2.800799465,      -6.199986754
          0,           0,         105,      -2.714126188,     -0.4612560605,     -0.5785467215,       2.797125564,      -6.198480392
          0,           0,         106,      -2.722804654,     -0.4508874078,     -0.6174119511,       2.791124793,      -6.198824531
          0,           0,         107,       -2.73302515,     -0.4419618937,     -0.6430877015,       2.782790418,      -6.200911863
          0,           0,         108,      -2.744720364,     -0.4344247449,     -0.6513531171,       2.772153825,      -6.204625124
          0,           0,         109,      -2.757781957,     -0.4281461322,     -0.6424972143,       2.759282194,      -6.209768199
          0,           0,         110,      -2.772053057,     -0.4229664911,     -0.6210458754,       2.744279054,      -6.216126575
          0,           0,         111,      -2.787317458,     -0.4187303351,     -0.5928739987,        2.72728898,      -6.223443478
          0,           0,         112,      -2.803276694,     -0.4153088386,      -0.562746399,       2.708508833,       -6.23144373
          0,           0,         113,      -2.819555981,     -0.4126121705,     -0.5336988069,       2.688196854,      -6.239834775
          0,           0,         114,      -2.835689118,     -0.4105928689,     -0.5073381062,       2.666690663,      -6.248272601
          0,           0,         115,      -2.851126507,     -0.4092418053,     -0.4843679153,       2.644422149,      -6.256421154
          0,           0,         116,       -2.86526497,     -0.4085804085,     -0.4649879729,       2.621926777,      -6.263995568
          0,           0,         117,       -2.87747479,     -0.4086509205,     -0.4491098521,       2.599845772,      -6.270723968
          0,           0,         118,      -2.887203898,     -0.4095078753,     -0.4365258696,       2.578896608,      -6.276366536
          0,           0,         119,      -2.894039946,     -0.4112108929,     -0.4269558111,       2.559825929,      -6.280751022
          0,           0,         120,      -2.897784751,      -0.413820352,     -0.4200846372,       2.543328357,      -6.283810189
          0,           0,         121,      -2.898490603,     -0.4173958206,     -0.4155787375,       2.529949048,      -6.285548348
          0,           0,         122,      -2.896672706,     -0.4219970859,     -0.4133345524,       2.519919207,      -6.285992079
          0,           0,         123,      -2.892372285,     -0.4276872748,     -0.4126100625,       2.513407583,      -6.285274745
          0,           0,         124,      -2.886403331,     -0.4345335847,     -0.4131678058,       2.510077745,      -6.283551502
          0,           0,         125,      -2.879398322,     -0.4426100016,     -0.4146548881,        2.50943076,      -6.280975898
          0,           0,         126,      -2.871916385,     -0.4519979039,     -0.4166992355,       2.510844385,      -6.277671656
          0,           0,         127,       -2.86446208,     -0.4627834526,     -0.4189643061,       2.513647721,      -6.273654028
          0,           0,         128,      -2.857510737,     -0.4750508487,     -0.4212016167,       2.517175827,      -6.269049049
          0,           0,         129,      -2.851406889,     -0.4888697549,     -0.4231420625,       2.520851915,      -6.263872951
          0,           0,         130,      -2.846422373,     -0.5042749726,     -0.4245612457,       2.524182488,      -6.258147992
          0,           0,         131,      -2.842790955,     -0.5212366314,     -0.4253067284,       2.526746418,      -6.251855153
          0,           0,         132,      -2.840695528,     -0.5396207266,     -0.4252950027,         2.5281956,       -6.24503239
          0,           0,         133,      -2.840286909,     -0.5591409405,     -0.4245103519,       2.528240203,      -6.237690945
          0,           0,         134,      -2.841675382,     -0.5793072734,     -0.4229913412,       2.526645951,      -6.229806324
          0,           0,         135,      -2.844946066,     -0.5993852027,     -0.4208436351,       2.523223119,      -6.221363438
          0,           0,         136,      -2.850146646,     -0.6183904993,     -0.4182103698,       2.517831005,      -6.212350013
          0,           0,         137,      -2.857288927,     -0.6351537692,     -0.4152649911,       2.510380736,      -6.202726489
          0,           0,         138,      -2.866348076,     -0.6484830661,     -0.4122010306,       2.500840635,      -6.192423859
          0,           0,         139,      -2.877241209,     -0.6574125977,     -0.4092160246,        2.48925342,      -6.181367357
          0,           0,         140,      -2.889825979,     -0.6614603974,     -0.4064992616,       2.475746036,      -6.169496956
          0,           0,         141,      -2.903890511,     -0.6607744648,     -0.4042236665,       2.460544497,      -6.156728254
          0,           0,         142,      -2.919155392,     -0.6560871254,     -0.4025538717,       2.443983364,      -6.143045866
          0,           0,         143,      -2.935200432,     -0.6485039731,     -0.4015754729,       2.426546836,      -6.128452001
          0,           0,         144,      -2.951571082,     -0.6392376551,      -0.401385067,        2.40882251,      -6.112962982
          0,           0,         145,      -2.967691976,     -0.6293954828,     -0.4020327748,       2.391522714,      -6.096621396
          0,           0,         146,      -2.982921797,     -0.6198632675,     -0.4035434734,       2.375424951,      -6.079496383
          0,           0,         147,       -2.99658594,      -0.611274234,     -0.4059218977,       2.361300564,      -6.061663517
          0,           0,         148,      -3.008030436,     -0.6040283206,     -0.4091434955,       2.349822682,      -6.043195616
          0,           0,         149,      -3.016709154,     -0.5983335109,     -0.4131635701,        2.34146318,      -6.024232064
          0,           0,         150,      -3.022242273,     -0.5942502363,     -0.4179260303,       2.336413469,       -6.00490382
          0,           0,         151,      -3.024483553,      -0.591730336,     -0.4233680975,       2.334565695,      -5.985336754
          0,           0,         152,      -3.023521629,     -0.5906478684,     -0.4294203483,       2.335556968,      -5.965682361
          0,           0,         153,       -3.01962265,     -0.5908243941,      -0.436008988,       2.338859552,      -5.946074055
          0,           0,         154,      -3.013250745,     -0.5920461783,     -0.4430946278,       2.343847585,      -5.926621333
          0,           0,         155,      -3.004894789,     -0.5940793255,     -0.4506281771,       2.349926257,      -5.907454575
          0,           0,         156,       -2.99502856,     -0.5966814068,      -0.458567779,       2.356569243,      -5.888718954
          0,           0,         157,      -2.984099678,     -0.5996119685,     -0.4668808382,       2.363343225,      -5.870492079
          0,           0,         158,      -2.972493914,     -0.6026419091,     -0.4755394806,       2.369914077,      -5.852887053
          0,           0,         159,      -2.960526596,     -0.6055636047,     -0.4845157948,       2.376039146,       -5.83592016
          0,           0,         160,      -2.948446104,     -0.6082004462,     -0.4937778309,       2.381553458,      -5.819713455
          0,           0,         161,       -2.93644108,      -0.610414949,     -0.5032864095,       2.386355548,      -5.804349317
          0,           0,         162,      -2.924649994,      -0.612115154,     -0.5129931359,       2.390395383,      -5.789858396
          0,           0,         163,      -2.913170496,     -0.6132573514,     -0.5228401709,       2.393665722,      -5.776225251
          0,           0,         164,      -2.902067751,     -0.6138447902,     -0.5327617508,       2.396196356,      -5.763555768
          0,           0,         165,      -2.891381428,     -0.6139223776,      -0.542687812,       2.398050451,      -5.751835849
          0,           0,         166,      -2.881131922,     -0.6135679145,     -0.5525490902,       2.399322221,      -5.741046423
          0,           0,         167,      -2.871325055,     -0.6128807154,     -0.5622833626,       2.400134824,      -5.731177034
          0,           0,         168,      -2.861956763,      -0.611969247,      -0.571842063,       2.400637379,      -5.722255285
          0,           0,         169,      -2.853052799,     -0.6109393464,     -0.5811962023,       2.400981816,       -5.71420693
          0,           0,         170,      -2.844552499,     -0.6098838422,     -0.5903383523,       2.401372712,      -5.706985258
          0,           0,         171,      -2.836440781,     -0.6088743226,     -0.5992888308,       2.401996264,      -5.700574296
          0,           0,         172,      -2.828712338,     -0.6079551762,     -0.6080932757,       2.403028204,       -5.69492101
          0,           0,         173,       -2.82135977,     -0.6071401773,     -0.6168133149,       2.404622437,      -5.689939474
          0,           0,         174,      -2.814380209,     -0.6064113215,      -0.625518311,       2.406893003,      -5.685587357
          0,           0,         175,      -2.807777686,     -0.6057198787,     -0.6342744762,       2.409900704,      -5.681796005
          0,           0,         176,      -2.801563989,     -0.6049898296,     -0.6431309912,       2.413644253,      -5.678472901
          0,           0,         177,      -2.795758434,     -0.6041235472,     -0.6521048835,       2.418057292,      -5.675589565
          0,           0,         178,      -2.790386599,     -0.6030094522,     -0.6611662924,       2.423012424,      -5.673055558
          0,           0,         179,      -2.785478067,     -0.6015316149,      -0.670225519,       2.428331208,      -5.670795191
          0,           0,         180,      -2.781063799,     -0.5995803784,      -0.679123931,       2.433798714,      -5.668761099
          0,           0,         181,       -2.77717311,     -0.5970634074,     -0.6876310626,       2.439180071,      -5.666886389
          0,           0,         182,      -2.773830757,     -0.5939158747,     -0.6954509473,       2.444236773,      -5.665128007
          0,           0,         183,      -2.771054183,     -0.5901080584,     -0.7022403285,       2.448740661,      -5.663464543
          0,           0,         184,      -2.768851235,     -0.5856500979,      -0.707639357,       2.452485135,      -5.661875424
          0,           0,         185,      -2.767219772,     -0.5805926894,     -0.7113140061,       2.455292633,       -5.66033604
          0,           0,         186,      -2.766146341,     -0.5750238977,     -0.7130029025,        2.45701911,      -5.658824421
          0,           0,         187,      -2.765700091,     -0.5690616314,     -0.7133732263,       2.457474086,      -5.657356247
          0,           0,         188,      -2.765641466,     -0.5628449899,     -0.7111645809,        2.45675587,      -5.655937171
          0,           0,         189,      -2.766017003,     -0.5565232539,     -0.7068825323,       2.454749402,      -5.654570422
          0,           0,         190,      -2.766774492,     -0.5502478086,     -0.7007815981,       2.451444122,      -5.653278982
          0,           0,         191,      -2.767839347,     -0.5441640903,     -0.6931885253,       2.446864707,      -5.652056757
          0,           0,         192,      -2.769121947,     -0.5384061751,     -0.6844823799,       2.441065504,      -5.650917275
          0,           0,         193,      -2.770523532,     -0.5330934123,     -0.6750509543,       2.434128683,      -5.649876194
          0,           0,         194,      -2.772051061,      -0.528328218,     -0.6658654067,       2.426063287,      -5.648963015
          0,           0,         195,      -2.773428454,     -0.5241977518,     -0.6564977684,       2.417166252,      -5.648200475
          0,           0,         196,      -2.774591713,     -0.5207721242,     -0.6470618068,       2.407581211,      -5.647604889
          0,           0,         197,      -2.775528965,      -0.518104689,     -0.6379176607,        2.39743917,      -5.647173006
          0,           0,         198,      -2.776192147,     -0.5162360599,     -0.6291917514,       2.386933239,      -5.646919389
          0,           0,         199,      -2.776540767,     -0.5151976448,     -0.6209647916,        2.37627356,      -5.646837016
          0,           0,         200,      -2.776539104,      -0.515014178,     -0.6132820786,       2.365682805,      -5.646939957
          0,           0,         201,      -2.776156954,     -0.5157060097,     -0.6061614208,       2.355394974,      -5.647221798
          0,           0,         202,      -2.775372448,     -0.5172894876,     -0.5996013329,       2.345650266,      -5.647683809
          0,           0,         203,      -2.774178958,     -0.5197772819,     -0.5935863377,       2.336681038,      -5.648319998
          0,           0,         204,      -2.772586101,      -0.523176696,     -0.5880935825,       2.328706399,      -5.649129166
          0,           0,         205,      -2.770742398,     -0.5274867544,     -0.5836032158,       2.321729419,      -5.650116881
          0,           0,         206,      -2.768452686,     -0.5326995146,     -0.5793304333,        2.31624705,      -5.651269044
          0,           0,         207,      -2.765869453,     -0.5387931262,     -0.5754333879,       2.312213189,      -5.652574048
          0,           0,         208,      -2.763084213,     -0.5457280581,     -0.5719689263,       2.309616654,       -5.65402443
          0,           0,         209,      -2.760171111,     -0.5534463811,      -0.568949211,       2.308417904,      -5.655604846
          0,           0,         210,      -2.757198666,     -0.5618639987,     -0.5663988618,       2.308528616,      -5.657318929
          0,           0,         211,      -2.754228638,     -0.5708743829,     -0.5643466867,       2.309784401,       -5.65914465
          0,           0,         212,      -2.751312391,     -0.5803445856,     -0.5628205534,       2.312003395,      -5.661053374
          0,           0,         213,      -2.748491902,     -0.5901108823,     -0.5618457831,       2.314980283,      -5.663031648
          0,           0,         214,      -2.745809772,     -0.5999869319,     -0.5614325779,       2.318465468,      -5.665033809
          0,           0,         215,      -2.743301784,     -0.6097603933,     -0.5615719633,       2.322247231,      -5.667037487
          0,           0,         216,      -2.741003196,     -0.6191954823,     -0.5622372531,       2.326103133,       -5.66901212
          0,           0,         217,      -2.739027552,     -0.6280573626,     -0.5636892853,       2.329654419,      -5.670913844
          0,           0,         218,      -2.737266306,     -0.6361133884,     -0.5654527455,       2.332973393,      -5.672649777
          0,           0,         219,      -2.735770477,     -0.6431416395,       -0.56740754,       2.335837382,      -5.674225583
          0,           0,         220,      -2.734590076,     -0.6489763592,     -0.5695024609,       2.337981627,      -5.675568517
          0,           0,         221,      -2.733729378,      -0.653501127,     -0.5715960372,       2.339332583,      -5.676602353
          0,           0,         222,       -2.73317795,     -0.6566337796,     -0.5735479614,        2.33983239,      -5.677293892
          0,           0,         223,        -2.7329194,     -0.6583889986,     -0.5752136843,       2.339290946,      -5.677598676
          0,           0,         224,      -2.732914947,     -0.6588665386,     -0.5764677622,       2.337696613,      -5.677519417
          0,           0,         225,      -2.733104234,     -0.6581632631,     -0.5772230521,       2.335218918,      -5.677011764
          0,           0,         226,      -2.733422046,     -0.6564160265,     -0.5774152133,       2.331792133,      -5.676053998
          0,           0,         227,      -2.733798175,     -0.6538655509,     -0.5770201032,       2.327322161,      -5.674579282
          0,           0,         228,      -2.734267055,     -0.6507338227,      -0.576619775,       2.321959722,      -5.672684222
          0,           0,         229,      -2.734538068,     -0.6471435962,      -0.575469082,       2.316472671,      -5.670374685
          0,           0,         230,      -2.734648689,     -0.6432500026,     -0.5738845918,        2.31057373,      -5.667649671
          0,           0,         231,      -2.734564684,     -0.6393014907,     -0.5720384533,       2.304230031,      -5.664489128
          0,           0,         232,      -2.734269078,     -0.6354747303,     -0.5701121263,       2.298198756,      -5.661004292
          0,           0,         233,       -2.73375605,     -0.6317618267,     -0.5682459492,       2.293292389,      -5.657341048
          0,           0,         234,      -2.732994958,     -0.6281690486,     -0.5665415633,       2.289371463,      -5.653491528
          0,           0,         235,      -2.731991038,     -0.6248810287,     -0.5651556871,       2.285967422,      -5.649470652
          0,           0,         236,      -2.730896681,      -0.622073088,     -0.5648281041,       2.283328965,      -5.645241845
          0,           0,         237,      -2.729526847,     -0.6197553679,     -0.5649511799,       2.282978724,      -5.640915029
          0,           0,         238,      -2.727980042,     -0.6177848143,     -0.5655939182,       2.285139894,      -5.636559938
          0,           0,         239,      -2.726272475,     -0.6161081367,     -0.5668328181,       2.288863093,      -5.632093782
          0,           0,         240,       -2.72441156,     -0.6148517865,     -0.5687485817,       2.293276134,      -5.627557297
          0,           0,         241,      -2.722511139,      -0.614155009,     -0.5714304675,       2.298374542,      -5.623099987
          0,           0,         242,      -2.720701992,     -0.6139998035,      -0.574860379,       2.304940809,      -5.618676425
          0,           0,         243,      -2.719125953,     -0.6141586047,     -0.5795419446,       2.312819375,      -5.614134203
          0,           0,         244,       -2.71753241,     -0.6144929107,     -0.5843955409,       2.321835999,      -5.609667072
          0,           0,         245,      -2.715966421,      -0.614956139,     -0.5896296736,       2.330712903,       -5.60525982
          0,           0,         246,      -2.714461662,     -0.6156791108,     -0.5953261443,       2.338910757,      -5.600817744
          0,           0,         247,      -2.713102138,     -0.6167405059,     -0.6014728276,       2.346560349,       -5.59661423
          0,           0,         248,      -2.711964041,     -0.6180346724,     -0.6079458904,       2.354250859,      -5.592455053
          0,           0,         249,      -2.711122299,     -0.6194136704,     -0.6146794603,       2.362028094,      -5.588524635
          0,           0,         250,      -2.710554096,     -0.6206830966,     -0.6218205078,       2.369623209,      -5.584801141
          0,           0,         251,      -2.710007451,     -0.6217256925,     -0.6284784092,       2.376559725,      -5.581248537
          0,           0,         252,      -2.709569891,     -0.6226081404,     -0.6349733811,       2.382379443,      -5.577982239
          0,           0,         253,      -2.709282633,     -0.6234035544,     -0.6412449027,        2.38706408,      -5.574936886
          0,           0,         254,      -2.709231661,     -0.6241908932,     -0.6471875694,       2.390887548,      -5.572255649
          0,           0,         255,      -2.709468796,      -0.624844776,     -0.6525926373,       2.394180213,      -5.569844798
          0,           0,         256,      -2.710010924,     -0.6252370033,     -0.6575404027,       2.396897295,      -5.567839972
          0,           0,         257,      -2.710748593,      -0.625261962,     -0.6617467824,       2.398938015,      -5.566153987
          0,           0,         258,       -2.71154899,     -0.6248597471,     -0.6647133207,       2.399982602,      -5.564920399
          0,           0,         259,      -2.712443712,     -0.6241091754,     -0.6666401173,       2.399792874,      -5.564021197
          0,           0,         260,      -2.713439593,     -0.6231267445,     -0.6674930942,       2.398312727,      -5.563481248
          0,           0,         261,      -2.714573752,     -0.6219615085,      -0.667285133,       2.395681443,      -5.563374703
          0,           0,         262,      -2.715839195,       -0.62057946,     -0.6659918369,       2.392089367,      -5.563563812
          0,           0,         263,      -2.717310553,      -0.618979564,     -0.6641238608,       2.387485477,      -5.564303277
          0,           0,         264,      -2.718743284,     -0.6170588404,     -0.6610125983,       2.382051767,       -5.56527947
          0,           0,         265,      -2.720150386,     -0.6148368664,     -0.6569194691,       2.375572676,      -5.566715388
          0,           0,         266,      -2.721466286,     -0.6123556759,     -0.6520695134,       2.367953681,      -5.568431437
          0,           0,         267,      -2.722659529,     -0.6097134622,     -0.6466313195,       2.359132303,      -5.570442647
          0,           0,         268,      -2.723725939,     -0.6069983721,     -0.6407962127,         2.3491829,      -5.572804479
          0,           0,         269,      -2.724662277,     -0.6042660043,     -0.6347796256,       2.338222576,      -5.575387734
          0,           0,         270,       -2.72548144,     -0.6015932496,     -0.6288677354,       2.326332113,      -5.578265333
          0,           0,         271,       -2.72607511,     -0.5990059274,      -0.622733792,        2.31381371,      -5.581314668
          0,           0,         272,      -2.726467531,     -0.5965204686,     -0.6166223822,       2.300699206,      -5.584580239
          0,           0,         273,      -2.726614639,      -0.594172185,     -0.6106253884,       2.287088591,      -5.587964153
          0,           0,         274,      -2.726543095,     -0.5920158294,      -0.604798724,       2.273079283,      -5.591512121
          0,           0,         275,      -2.726182719,     -0.5900509738,     -0.5992041999,       2.258750535,      -5.595119796
          0,           0,         276,      -2.725566858,     -0.5883104031,     -0.5938989859,       2.244249193,      -5.598741458
          0,           0,         277,      -2.724695384,     -0.5867777536,     -0.5889195973,       2.229733691,      -5.602443019
          0,           0,         278,      -2.723578354,     -0.5854294027,     -0.5843968081,       2.215294764,      -5.605992058
          0,           0,         279,      -2.722207457,     -0.5842537498,     -0.5801692987,         2.2011719,      -5.609522777
          0,           0,         280,      -2.720598484,     -0.5832000285,     -0.5763168907,       2.187489954,      -5.612868358
          0,           0,         281,       -2.71875212,     -0.5822228044,     -0.5728528469,       2.174358863,       -5.61606894
          0,           0,         282,      -2.716669881,     -0.5812745581,     -0.5697884748,       2.161893513,      -5.619117364
          0,           0,         283,      -2.714363475,     -0.5803154924,     -0.5671315666,       2.150191198,      -5.621922148
          0,           0,         284,      -2.711837522,     -0.5793019252,     -0.5648865203,       2.139324139,      -5.624440195
          0,           0,         285,      -2.709100285,      -0.578202829,      -0.563056835,       2.129349121,      -5.626680132
          0,           0,         286,      -2.706162737,     -0.5769927726,      -0.561643704,       2.120322441,      -5.628607973
          0,           0,         287,      -2.703040544,     -0.5756638281,     -0.5606466508,       2.112292201,      -5.630250158
          0,           0,         288,      -2.699751915,     -0.5742204178,     -0.5600662263,       2.105302343,      -5.631621602
          0,           0,         289,      -2.696308186,     -0.5726761627,     -0.5599022975,       2.099394818,      -5.632673961
          0,           0,         290,      -2.692740501,     -0.5710600129,     -0.5601524078,       2.094615032,      -5.633444331
          0,           0,         291,      -2.689096371,     -0.5694207149,     -0.5608172344,       2.091023446,      -5.633898496
          0,           0,         292,       -2.68541502,     -0.5678158824,     -0.5619014653,       2.088694099,      -5.634089433
          0,           0,         293,      -2.681732334,     -0.5663082203,     -0.5634125546,        2.08769925,      -5.634029766
          0,           0,         294,      -2.678081077,     -0.5649553031,     -0.5653604746,       2.088102787,      -5.633771714
          0,           0,         295,      -2.674496052,     -0.5638168482,     -0.5677553772,       2.089939208,      -5.633306154
          0,           0,         296,      -2.671013013,     -0.5629476457,     -0.5705775522,       2.093192407,       -5.63269755
          0,           0,         297,      -2.667655534,     -0.5623984794,     -0.5738023709,       2.097888594,      -5.631990275
          0,           0,         298,      -2.664476377,     -0.5622151956,      -0.577543359,       2.103806864,       -5.63115736
          0,           0,         299,      -2.661505053,     -0.5624321637,      -0.581694968,       2.110823884,      -5.630281243
          0,           0,         300,      -2.658742855,     -0.5630737194,     -0.5861913017,       2.118893412,      -5.629350141
          0,           0,         301,      -2.656219884,     -0.5641524246,     -0.5909750003,       2.127744226,      -5.628409296
          0,           0,         302,      -2.653987733,     -0.5656686502,     -0.5963503518,       2.136963841,      -5.627499823
          0,           0,         303,      -2.652074129,     -0.5676124671,     -0.6023545387,       2.146308671,      -5.626596614
          0,           0,         304,      -2.650475974,     -0.5699634104,     -0.6088530583,       2.155698045,      -5.625757385
          0,           0,         305,      -2.649198243,     -0.5726892671,     -0.6157836256,       2.164948698,      -5.624974938
          0,           0,         306,      -2.648253191,     -0.5757481654,     -0.6231086419,       2.173855006,      -5.624257216
          0,           0,         307,      -2.647650262,       -0.57908852,     -0.6307842406,       2.182235167,      -5.623651138
          0,           0,         308,      -2.647392555,     -0.5826509256,     -0.6387537644,       2.189938659,      -5.623093802
          0,           0,         309,      -2.647478615,     -0.5863693218,     -0.6469504047,       2.196843771,      -5.622637369
          0,           0,         310,      -2.647905531,     -0.5901744415,     -0.6552997524,       2.202854721,       -5.62229667
          0,           0,         311,      -2.648670099,     -0.5939961923,      -0.663721368,       2.207902244,      -5.622018655
          0,           0,         312,      -2.649768113,      -0.597768965,     -0.6721303612,       2.211940846,      -5.621900569
          0,           0,         313,      -2.651195174,     -0.6014364386,     -0.6804405096,       2.214947174,      -5.621834693
          0,           0,         314,      -2.652945413,     -0.6049508037,     -0.6885672488,       2.216918806,      -5.621919654
          0,           0,         315,      -2.655011227,     -0.6082736341,     -0.6964302101,       2.217876914,      -5.622134475
          0,           0,         316,      -2.657384875,     -0.6113805278,     -0.7039553757,       2.217862925,      -5.622459687
          0,           0,         317,      -2.660058317,     -0.6142619063,     -0.7110777027,       2.216932623,      -5.622937957
          0,           0,         318,       -2.66302314,     -0.6169197024,     -0.7177436934,       2.215154067,       -5.62355696
          0,           0,         319,      -2.666270421,     -0.6193667725,     -0.7239154067,       2.212607123,      -5.624260501
          0,           0,         320,      -2.669791293,     -0.6216252824,     -0.7295720895,        2.20938197,      -5.625107523
          0,           0,         321,      -2.673576777,     -0.6237248495,     -0.7347108899,       2.205579526,      -5.626138915
          0,           0,         322,      -2.677617478,      -0.625700338,       -0.73934689,         2.2013094,      -5.627235334
          0,           0,         323,      -2.681903428,      -0.627589082,     -0.7435126667,       2.196690652,      -5.628531256
          0,           0,         324,      -2.686423949,     -0.6294307165,      -0.747256137,       2.191846788,       -5.62994617
          0,           0,         325,      -2.691167132,     -0.6312630529,     -0.7506389547,       2.186902978,      -5.631460292
          0,           0,         326,      -2.696119248,     -0.6331185053,     -0.7537333776,       2.181986995,      -5.633114254
          0,           0,         327,      -2.701265891,     -0.6350254941,     -0.7566167518,       2.177225453,      -5.634877612
          0,           0,         328,      -2.706591306,     -0.6370067449,     -0.7593666417,       2.172733958,      -5.636737846
          0,           0,         329,      -2.712078531,     -0.6390790981,     -0.7620577686,       2.168611369,      -5.638674258
          0,           0,         330,      -2.717710036,     -0.6412531766,     -0.7647589376,       2.164934904,      -5.640745342
          0,           0,         331,      -2.723468336,     -0.6435339413,     -0.7675299657,       2.161755974,      -5.642888013
          0,           0,         332,      -2.729336539,      -0.645921165,     -0.7704186455,       2.159096213,      -5.644979308
          0,           0,         333,      -2.735298078,     -0.6484103399,     -0.7734597405,       2.156946931,      -5.647048739
          0,           0,         334,      -2.741337442,     -0.6509946096,     -0.7766735868,       2.155269081,      -5.649044099
          0,           0,         335,      -2.747440197,     -0.6536631357,     -0.7800660809,       2.153997399,      -5.650962083
          0,           0,         336,        -2.7535939,      -0.656405233,     -0.7836283905,       2.153044714,      -5.652583441
          0,           0,         337,      -2.759786868,     -0.6592097443,     -0.7873386815,       2.152310154,      -5.654052203
          0,           0,         338,      -2.766010325,     -0.6620679857,     -0.7911618575,       2.151681947,       -5.65528436
          0,           0,         339,      -2.772257147,     -0.6649733164,     -0.7950527454,       2.151044576,      -5.656258896
          0,           0,         340,      -2.778521261,     -0.6679221636,     -0.7989584224,       2.150285071,      -5.656847647
          0,           0,         341,       -2.78479685,     -0.6709151379,     -0.8028212718,       2.149298496,      -5.657078772
          0,           0,         342,      -2.791079017,     -0.6739573614,     -0.8065810157,       2.147987805,      -5.656937436
          0,           0,         343,      -2.797363501,     -0.6770587466,     -0.8101799987,       2.146269339,      -5.656384209
          0,           0,         344,      -2.803645469,     -0.6802338648,     -0.8135667557,       2.144074448,      -5.655389731
          0,           0,         345,      -2.809918395,       -0.68350168,     -0.8166998514,       2.141351293,      -5.653989903
          0,           0,         346,      -2.816174849,     -0.6868849622,     -0.8195490231,       2.138062863,       -5.65217762
          0,           0,         347,      -2.822405205,     -0.6904097275,     -0.8221004572,       2.134191015,      -5.649949148
          0,           0,         348,       -2.82859767,     -0.6941044354,     -0.8243562279,        2.12973629,      -5.647357734
          0,           0,         349,      -2.834736941,     -0.6979993676,     -0.8263355399,       2.124719028,       -5.64440233
          0,           0,         350,      -2.840806104,     -0.7021251652,     -0.8280715234,       2.119178467,      -5.641101063
          0,           0,         351,       -2.84678649,     -0.7065124218,      -0.829612282,       2.113176417,      -5.637500341
          0,           0,         352,      -2.852653499,     -0.7111905211,     -0.8310171675,       2.106797058,      -5.633599252
          0,           0,         353,      -2.858380909,     -0.7161872283,     -0.8323527175,       2.100145848,      -5.629435011
          0,           0,         354,      -2.863941928,     -0.7215283454,     -0.8336895944,       2.093349056,       -5.62496466
          0,           0,         355,      -2.869310343,     -0.7272372903,     -0.8350994115,       2.086555034,      -5.620266268
          0,           0,         356,      -2.874457212,     -0.7333339472,     -0.8366524326,       2.079929417,      -5.615319214
          0,           0,         357,      -2.879393425,     -0.7398342121,     -0.8387098255,        2.07353543,      -5.610142949
          0,           0,         358,      -2.884032004,     -0.7467512718,     -0.8409927644,       2.067741709,      -5.604735833
          0,           0,         359,      -2.888364881,     -0.7540925211,     -0.8435219278,       2.062698789,      -5.599072845
          0,           0,         360,      -2.892395376,     -0.7618603714,     -0.8464040493,        2.05852946,      -5.593183394
          0,           0,         361,      -2.896110146,     -0.7700488322,     -0.8496669339,       2.055372533,      -5.587044046
          0,           0,         362,      -2.899499494,     -0.7786444546,     -0.8533292682,       2.053327818,      -5.580685347
          0,           0,         363,      -2.902557671,     -0.7876251355,     -0.8573986526,       2.052450059,       -5.57408988
          0,           0,         364,      -2.905286808,     -0.7969598247,     -0.8618713892,       2.052742039,      -5.567254791
          0,           0,         365,      -2.907695427,     -0.8066062321,      -0.866729135,       2.054157055,       -5.56019701
          0,           0,         366,      -2.909796207,     -0.8165076847,     -0.8719377085,        2.05659748,      -5.552856567
          0,           0,         367,      -2.911611315,     -0.8265950059,     -0.8774435238,       2.059922866,      -5.545226356
          0,           0,         368,      -2.913167995,     -0.8367845803,      -0.883175438,       2.063961231,      -5.537341943
          0,           0,         369,      -2.914586439,     -0.8469766344,     -0.8898386853,        2.06829577,      -5.529168378
          0,           0,         370,      -2.915724797,     -0.8570582329,     -0.8961596105,       2.073178908,      -5.520700762
          0,           0,         371,      -2.916700779,      -0.866898089,     -0.9023015752,       2.078212616,      -5.511917537
          0,           0,         372,      -2.917571074,     -0.8763493657,     -0.9081717991,       2.083174449,      -5.502782683
          0,           0,         373,      -2.918374555,     -0.8852528228,     -0.9136059579,       2.087884779,      -5.493296241
          0,           0,         374,      -2.919139419,      -0.893443867,     -0.9184402093,       2.092181726,      -5.483461721
          0,           0,         375,      -2.919883781,     -0.9007600229,     -0.9225200684,       2.095928234,      -5.473308672
          0,           0,         376,       -2.92065632,     -0.9070500674,     -0.9260492398,       2.098929413,      -5.462796828
          0,           0,         377,      -2.921452578,     -0.9121826564,     -0.9291477895,       2.101118105,      -5.451917802
          0,           0,         378,      -2.922177931,     -0.9160585634,     -0.9306947707,        2.10263295,      -5.440691293
          0,           0,         379,      -2.922914637,     -0.9186066043,       -0.93104142,       2.103264622,      -5.429111246
          0,           0,         380,      -2.923748129,     -0.9197909447,     -0.9308846662,       2.102822939,      -5.417232604
          0,           0,         381,       -2.92459548,     -0.9196192239,     -0.9296066288,       2.101464729,      -5.405051344
          0,           0,         382,      -2.925487457,     -0.9181400904,      -0.927553703,       2.099105219,      -5.392614934
          0,           0,         383,      -2.926378929,     -0.9154417754,     -0.9245498863,       2.095809575,      -5.379932052
          0,           0,         384,      -2.927274938,     -0.9116436191,     -0.9207947993,       2.091539391,      -5.367050149
          0,           0,         385,      -2.928109678,     -0.9068874071,     -0.9159436105,       2.086417323,      -5.354027019
          0,           0,         386,      -2.928961942,     -0.9013272817,     -0.9108131955,       2.080266372,       -5.34089016
          0,           0,         387,      -2.929740259,     -0.8951210581,     -0.9050320659,       2.073293202,      -5.327694884
          0,           0,         388,      -2.930459559,      -0.888422831,     -0.8988198999,       2.065480717,      -5.314512799
          0,           0,         389,      -2.931118325,     -0.8813779203,      -0.892379906,       2.056848266,       -5.30137797
          0,           0,         390,      -2.931700431,     -0.8741200843,     -0.8858422165,       2.047445603,      -5.288329256
          0,           0,         391,      -2.932249416,     -0.8667693262,     -0.8798157204,       2.037167364,      -5.275489582
          0,           0,         392,      -2.932620813,     -0.8594325059,     -0.8736467445,        2.02640749,      -5.262787978
          0,           0,         393,      -2.932845995,      -0.852206113,     -0.8676514545,       2.015110895,      -5.250391473
          0,           0,         394,      -2.932910183,     -0.8451692861,     -0.8619273348,       2.003357903,      -5.238262478
          0,           0,         395,      -2.932801058,      -0.838387677,     -0.8565294705,       1.991258473,      -5.226432572
          0,           0,         396,      -2.932511762,     -0.8319197281,     -0.8514994798,        1.97894062,      -5.214902834
          0,           0,         397,       -2.93203962,     -0.8258139801,     -0.8468685421,        1.96654875,      -5.203669022
          0,           0,         398,      -2.931445406,     -0.8201048359,     -0.8430160599,       1.954010914,      -5.192746727
          0,           0,         399,      -2.930655415,     -0.8148203171,     -0.8396838504,       1.941814228,      -5.182164682
          0,           0,         400,      -2.929660018,     -0.8099802659,     -0.8366620559,       1.930260383,      -5.171910221
          0,           0,         401,      -2.928511437,     -0.8055989124,     -0.8341186266,       1.919418255,      -5.162011984
          0,           0,         402,      -2.927226256,     -0.8016862304,     -0.8320630123,       1.909510743,      -5.152457529
          0,           0,         403,      -2.925821968,     -0.7982495567,     -0.8305015705,       1.900764747,      -5.143277477
          0,           0,         404,       -2.92431638,     -0.7952953342,     -0.8294399692,       1.893399611,       -5.13446878
          0,           0,         405,      -2.922730423,     -0.7928270098,     -0.8288855559,       1.887615003,      -5.126049159
          0,           0,         406,      -2.921083478,     -0.7908592422,     -0.8288470827,       1.883578055,      -5.117933933
          0,           0,         407,      -2.919500194,     -0.7894074608,     -0.8301023476,       1.880780301,      -5.110099677
          0,           0,         408,      -2.917764673,     -0.7884845285,      -0.831413083,       1.880597781,      -5.102522518
          0,           0,         409,      -2.916002235,     -0.7881006904,     -0.8332127765,       1.882356479,      -5.095192221
          0,           0,         410,      -2.914227503,     -0.7882635098,      -0.835515965,       1.885937713,      -5.088089792
          0,           0,         411,      -2.912449309,     -0.7889753492,     -0.8383248217,       1.891186042,      -5.081211606
          0,           0,         412,      -2.910680463,     -0.7902350883,     -0.8416405919,       1.897903668,      -5.074555944
          0,           0,         413,      -2.908936684,     -0.7920383122,     -0.8454619544,        1.90586432,      -5.068105426
          0,           0,         414,      -2.907235059,     -0.7943768162,     -0.8497872036,         1.9148206,      -5.061901654
          0,           0,         415,      -2.905594396,     -0.7972348252,     -0.8546147999,       1.924532362,      -5.055903657
          0,           0,         416,      -2.904035574,     -0.8006006083,      -0.859995679,       1.934729454,      -5.050074407
          0,           0,         417,      -2.902618209,     -0.8044519698,     -0.8664303458,       1.944983974,       -5.04439135
          0,           0,         418,      -2.901223754,     -0.8087609643,     -0.8729515643,       1.955709485,      -5.038848702
          0,           0,         419,      -2.899935305,     -0.8134924759,     -0.8799029825,       1.966374455,      -5.033436056
          0,           0,         420,      -2.898766458,     -0.8186020481,     -0.8872734122,        1.97682263,      -5.028165567
          0,           0,         421,       -2.89773022,     -0.8240376059,     -0.8950378373,       1.986929573,      -5.023019691
          0,           0,         422,       -2.89684444,     -0.8297410443,     -0.9031625461,       1.996596243,      -5.017993513
          0,           0,         423,      -2.896128602,     -0.8356500205,     -0.9116055031,       2.005745573,       -5.01309412
          0,           0,         424,      -2.895603119,     -0.8416988311,     -0.9203181168,       2.014318464,       -5.00837999
          0,           0,         425,      -2.895286201,     -0.8478197341,     -0.9292427381,        2.02226941,      -5.003835862
          0,           0,         426,      -2.895190456,      -0.853945719,     -0.9383120057,       2.029563899,      -4.999432488
          0,           0,         427,      -2.895324766,     -0.8600067772,     -0.9474462375,        2.03617482,      -4.995169889
          0,           0,         428,      -2.895693821,     -0.8659313677,     -0.9565526682,       2.042083022,       -4.99105779
          0,           0,         429,      -2.896301155,      -0.871651068,     -0.9655209066,        2.04727373,      -4.987087849
          0,           0,         430,      -2.897148812,     -0.8770985828,      -0.974221873,        2.05173582,      -4.983273594
          0,           0,         431,      -2.898244593,     -0.8822101227,     -0.9825532886,       2.055444266,      -4.979601043
          0,           0,         432,       -2.89959923,     -0.8869282226,     -0.9905187206,       2.058367974,      -4.976092792
          0,           0,         433,      -2.901189261,     -0.8912053203,     -0.9975187373,       2.060573799,      -4.972743393
          0,           0,         434,      -2.903038296,     -0.8950045888,      -1.003555971,       2.061994456,      -4.969540932
          0,           0,         435,      -2.905150551,     -0.8983021076,      -1.008470031,       2.062616182,      -4.966491835
          0,           0,         436,      -2.907528971,     -0.9010864728,      -1.012116275,       2.062425285,      -4.963598619
          0,           0,         437,      -2.910175622,     -0.9033596411,      -1.014376372,       2.061406736,       -4.96085831
          0,           0,         438,      -2.913091573,     -0.9051357563,      -1.015169437,       2.059545036,      -4.958242622
          0,           0,         439,       -2.91627615,      -0.906439858,      -1.014460145,       2.056823598,      -4.955765243
          0,           0,         440,      -2.919727138,     -0.9073068504,      -1.012262402,       2.053225164,      -4.953422835
          0,           0,         441,      -2.923438252,     -0.9077778223,      -1.008639471,       2.048733375,      -4.951189045
          0,           0,         442,      -2.927401058,     -0.9078981197,      -1.003697638,       2.043332282,      -4.949065927
          0,           0,         443,      -2.931606764,     -0.9077140751,     -0.9975806265,       2.037008722,      -4.947043179
          0,           0,         444,      -2.936041344,     -0.9072712454,     -0.9904592028,       2.029751589,      -4.945095199
          0,           0,         445,      -2.940692306,     -0.9066151084,     -0.9825196189,       2.021552022,      -4.943221829
          0,           0,         446,      -2.945542903,     -0.9057870887,     -0.9739539592,       2.012405599,      -4.941413813
          0,           0,         447,      -2.950581366,     -0.9048282488,     -0.9647757475,       2.002312866,      -4.939649498
          0,           0,         448,      -2.955786447,     -0.9037746879,     -0.9553224647,       1.991305006,      -4.937927574
          0,           0,         449,      -2.961146176,     -0.9026611399,     -0.9455080669,       1.979368755,      -4.936228779
          0,           0,         450,      -2.966542249,     -0.9015147211,     -0.9347293895,       1.966817162,      -4.934552614
          0,           0,         451,      -2.972059719,     -0.9003615554,      -0.924215079,        1.95336155,      -4.932902865
          0,           0,         452,      -2.977746497,     -0.8992244766,     -0.9146516586,        1.93881215,      -4.931234617
          0,           0,         453,      -2.983534883,      -0.898124529,     -0.9058549565,       1.923372614,      -4.929550585
          0,           0,         454,      -2.989337632,      -0.897077879,     -0.8976564772,       1.907306734,      -4.927840779
          0,           0,         455,      -2.995105582,     -0.8960975315,     -0.8900719204,       1.890799246,      -4.926092937
          0,           0,         456,      -3.000800016,     -0.8951927628,     -0.8831568912,       1.874029669,      -4.924289379
          0,           0,         457,      -3.006378587,     -0.8943690618,     -0.8769528663,       1.857217185,      -4.922427968
          0,           0,         458,      -3.011795891,     -0.8936283634,     -0.8714843808,       1.840632399,      -4.920517022
          0,           0,         459,      -3.017006404,     -0.8929693682,     -0.8667664959,       1.824595282,      -4.918502663
          0,           0,         460,      -3.021968041,     -0.8923878176,     -0.8628087683,       1.809462646,      -4.916460824
          0,           0,         461,      -3.026644074,     -0.8918801913,     -0.8596142371,       1.795611616,      -4.914355547
          0,           0,         462,      -3.031001746,     -0.8914431121,     -0.8571811524,       1.783422751,      -4.912157042
          0,           0,         463,      -3.035012443,     -0.8910760317,     -0.8555033022,       1.773252573,      -4.909858699
          0,           0,         464,        -3.0386529,     -0.8907823913,      -0.854568908,       1.765401687,      -4.907484666
          0,           0,         465,      -3.041904608,     -0.8905672257,     -0.8543617846,       1.760080102,      -4.905037657
          0,           0,         466,      -3.044752662,     -0.8904338886,     -0.8548631074,       1.757394157,      -4.902484341
          0,           0,         467,      -3.047189081,     -0.8903889527,     -0.8560508075,       1.757338229,      -4.899816371
          0,           0,         468,      -3.049213247,     -0.8904381921,     -0.8579013685,       1.759786173,      -4.897027155
          0,           0,         469,      -3.050832771,     -0.8905872282,     -0.8603899102,       1.764509509,      -4.894146479
          0,           0,         470,      -3.052061641,     -0.8908393999,     -0.8634908026,       1.771204026,      -4.891163387
          0,           0,         471,      -3.052920133,     -0.8911954857,     -0.8671799282,       1.779521147,      -4.888107399
          0,           0,         472,      -3.053434778,     -0.8916543392,     -0.8714335426,       1.789097907,      -4.884951992
          0,           0,         473,      -3.053636692,     -0.8922130229,     -0.8762289369,       1.799582904,      -4.881738937
          0,           0,         474,      -3.053562723,     -0.8928675015,     -0.8815442404,       1.810647734,      -4.878445846
          0,           0,         475,      -3.053247991,     -0.8936152359,     -0.8873596033,       1.822010381,      -4.875069023
          0,           0,         476,      -3.052722315,     -0.8944481579,     -0.8936553167,       1.833436285,      -4.871647698
          0,           0,         477,      -3.052019337,     -0.8953555671,     -0.9004118419,       1.844725848,      -4.868180987
          0,           0,         478,      -3.051176322,     -0.8963350414,     -0.9076095757,       1.855728314,      -4.864679993
          0,           0,         479,      -3.050223842,     -0.8973815973,      -0.915228354,          1.866324,      -4.861184944
          0,           0,         480,      -3.049187641,     -0.8984905419,     -0.9232481657,        1.87642333,      -4.857660374
          0,           0,         481,       -3.04808928,     -0.8996557822,     -0.9316488212,       1.885962606,       -4.85412417
          0,           0,         482,      -3.046948155,     -0.9008757475,     -0.9404096188,       1.894900744,      -4.850634006
          0,           0,         483,      -3.045781715,     -0.9021505541,     -0.9495091659,       1.903213949,      -4.847129932
          0,           0,         484,      -3.044605043,     -0.9034819323,     -0.9589255529,        1.91089369,      -4.843628826
          0,           0,         485,      -3.043433855,     -0.9048768258,     -0.9686364325,       1.917940642,       -4.84019339
          0,           0,         486,      -3.042278311,      -0.906333861,     -0.9786187614,       1.924365566,      -4.836754262
          0,           0,         487,       -3.04115011,     -0.9078563301,     -0.9888471289,       1.930187986,      -4.833388455
          0,           0,         488,      -3.040067957,     -0.9094585764,     -0.9992957025,       1.935425762,      -4.830063585
