<?xml version="1.0" encoding="UTF-8" standalone="no"?>
<!-- Created with Inkscape (http://www.inkscape.org/) -->

<svg
   xmlns:dc="http://purl.org/dc/elements/1.1/"
   xmlns:cc="http://creativecommons.org/ns#"
   xmlns:rdf="http://www.w3.org/1999/02/22-rdf-syntax-ns#"
   xmlns:svg="http://www.w3.org/2000/svg"
   xmlns="http://www.w3.org/2000/svg"
   xmlns:xlink="http://www.w3.org/1999/xlink"
   xmlns:sodipodi="http://sodipodi.sourceforge.net/DTD/sodipodi-0.dtd"
   xmlns:inkscape="http://www.inkscape.org/namespaces/inkscape"
   width="302.46167mm"
   height="66.543503mm"
   viewBox="0 0 1071.7146 235.78406"
   id="svg2"
   version="1.1"
   inkscape:version="0.91 r13725"
   sodipodi:docname="RANS_setup.svg">
  <defs
     id="defs4">
    <marker
       inkscape:isstock="true"
       style="overflow:visible"
       id="marker13432"
       refX="0"
       refY="0"
       orient="auto"
       inkscape:stockid="Arrow1Mend">
      <path
         inkscape:connector-curvature="0"
         transform="matrix(-0.4,0,0,-0.4,-4,0)"
         style="fill:#a1a1a1;fill-opacity:1;fill-rule:evenodd;stroke:#a1a1a1;stroke-width:1pt;stroke-opacity:1"
         d="M 0,0 5,-5 -12.5,0 5,5 0,0 Z"
         id="path13434" />
    </marker>
    <marker
       inkscape:stockid="Arrow1Mend"
       orient="auto"
       refY="0"
       refX="0"
       id="marker12131"
       style="overflow:visible"
       inkscape:isstock="true">
      <path
         id="path12133"
         d="M 0,0 5,-5 -12.5,0 5,5 0,0 Z"
         style="fill:#a1a1a1;fill-opacity:1;fill-rule:evenodd;stroke:#a1a1a1;stroke-width:1pt;stroke-opacity:1"
         transform="matrix(-0.4,0,0,-0.4,-4,0)"
         inkscape:connector-curvature="0" />
    </marker>
    <marker
       inkscape:isstock="true"
       style="overflow:visible"
       id="marker11713"
       refX="0"
       refY="0"
       orient="auto"
       inkscape:stockid="Arrow1Mend">
      <path
         inkscape:connector-curvature="0"
         transform="matrix(-0.4,0,0,-0.4,-4,0)"
         style="fill:#a1a1a1;fill-opacity:1;fill-rule:evenodd;stroke:#a1a1a1;stroke-width:1pt;stroke-opacity:1"
         d="M 0,0 5,-5 -12.5,0 5,5 0,0 Z"
         id="path11715" />
    </marker>
    <marker
       inkscape:stockid="Arrow1Mend"
       orient="auto"
       refY="0"
       refX="0"
       id="marker11427"
       style="overflow:visible"
       inkscape:isstock="true">
      <path
         id="path11429"
         d="M 0,0 5,-5 -12.5,0 5,5 0,0 Z"
         style="fill:#a1a1a1;fill-opacity:1;fill-rule:evenodd;stroke:#a1a1a1;stroke-width:1pt;stroke-opacity:1"
         transform="matrix(-0.4,0,0,-0.4,-4,0)"
         inkscape:connector-curvature="0" />
    </marker>
    <marker
       inkscape:isstock="true"
       style="overflow:visible"
       id="marker10979"
       refX="0"
       refY="0"
       orient="auto"
       inkscape:stockid="Arrow1Mend">
      <path
         inkscape:connector-curvature="0"
         transform="matrix(-0.4,0,0,-0.4,-4,0)"
         style="fill:#a1a1a1;fill-opacity:1;fill-rule:evenodd;stroke:#a1a1a1;stroke-width:1pt;stroke-opacity:1"
         d="M 0,0 5,-5 -12.5,0 5,5 0,0 Z"
         id="path10981" />
    </marker>
    <marker
       inkscape:stockid="Arrow1Mend"
       orient="auto"
       refY="0"
       refX="0"
       id="marker10705"
       style="overflow:visible"
       inkscape:isstock="true">
      <path
         id="path10707"
         d="M 0,0 5,-5 -12.5,0 5,5 0,0 Z"
         style="fill:#a1a1a1;fill-opacity:1;fill-rule:evenodd;stroke:#a1a1a1;stroke-width:1pt;stroke-opacity:1"
         transform="matrix(-0.4,0,0,-0.4,-4,0)"
         inkscape:connector-curvature="0" />
    </marker>
    <marker
       inkscape:isstock="true"
       style="overflow:visible"
       id="marker10282"
       refX="0"
       refY="0"
       orient="auto"
       inkscape:stockid="Arrow1Mend"
       inkscape:collect="always">
      <path
         inkscape:connector-curvature="0"
         transform="matrix(-0.4,0,0,-0.4,-4,0)"
         style="fill:#a1a1a1;fill-opacity:1;fill-rule:evenodd;stroke:#a1a1a1;stroke-width:1pt;stroke-opacity:1"
         d="M 0,0 5,-5 -12.5,0 5,5 0,0 Z"
         id="path10284" />
    </marker>
    <marker
       inkscape:stockid="Arrow1Mend"
       orient="auto"
       refY="0"
       refX="0"
       id="marker10002"
       style="overflow:visible"
       inkscape:isstock="true">
      <path
         id="path10004"
         d="M 0,0 5,-5 -12.5,0 5,5 0,0 Z"
         style="fill:#a1a1a1;fill-opacity:1;fill-rule:evenodd;stroke:#a1a1a1;stroke-width:1pt;stroke-opacity:1"
         transform="matrix(-0.4,0,0,-0.4,-4,0)"
         inkscape:connector-curvature="0" />
    </marker>
    <marker
       inkscape:stockid="Arrow1Mend"
       orient="auto"
       refY="0"
       refX="0"
       id="marker9746"
       style="overflow:visible"
       inkscape:isstock="true">
      <path
         id="path9748"
         d="M 0,0 5,-5 -12.5,0 5,5 0,0 Z"
         style="fill:#a1a1a1;fill-opacity:1;fill-rule:evenodd;stroke:#a1a1a1;stroke-width:1pt;stroke-opacity:1"
         transform="matrix(-0.4,0,0,-0.4,-4,0)"
         inkscape:connector-curvature="0" />
    </marker>
    <marker
       inkscape:isstock="true"
       style="overflow:visible"
       id="marker9496"
       refX="0"
       refY="0"
       orient="auto"
       inkscape:stockid="Arrow1Mend">
      <path
         inkscape:connector-curvature="0"
         transform="matrix(-0.4,0,0,-0.4,-4,0)"
         style="fill:#a1a1a1;fill-opacity:1;fill-rule:evenodd;stroke:#a1a1a1;stroke-width:1pt;stroke-opacity:1"
         d="M 0,0 5,-5 -12.5,0 5,5 0,0 Z"
         id="path9498" />
    </marker>
    <marker
       inkscape:stockid="Arrow1Mend"
       orient="auto"
       refY="0"
       refX="0"
       id="marker9078"
       style="overflow:visible"
       inkscape:isstock="true">
      <path
         id="path9080"
         d="M 0,0 5,-5 -12.5,0 5,5 0,0 Z"
         style="fill:#a1a1a1;fill-opacity:1;fill-rule:evenodd;stroke:#a1a1a1;stroke-width:1pt;stroke-opacity:1"
         transform="matrix(-0.4,0,0,-0.4,-4,0)"
         inkscape:connector-curvature="0" />
    </marker>
    <marker
       inkscape:stockid="Arrow1Mend"
       orient="auto"
       refY="0"
       refX="0"
       id="marker8828"
       style="overflow:visible"
       inkscape:isstock="true"
       inkscape:collect="always">
      <path
         id="path8830"
         d="M 0,0 5,-5 -12.5,0 5,5 0,0 Z"
         style="fill:#a1a1a1;fill-opacity:1;fill-rule:evenodd;stroke:#a1a1a1;stroke-width:1pt;stroke-opacity:1"
         transform="matrix(-0.4,0,0,-0.4,-4,0)"
         inkscape:connector-curvature="0" />
    </marker>
    <marker
       inkscape:isstock="true"
       style="overflow:visible"
       id="marker8410"
       refX="0"
       refY="0"
       orient="auto"
       inkscape:stockid="Arrow1Mend"
       inkscape:collect="always">
      <path
         inkscape:connector-curvature="0"
         transform="matrix(-0.4,0,0,-0.4,-4,0)"
         style="fill:#a1a1a1;fill-opacity:1;fill-rule:evenodd;stroke:#a1a1a1;stroke-width:1pt;stroke-opacity:1"
         d="M 0,0 5,-5 -12.5,0 5,5 0,0 Z"
         id="path8412" />
    </marker>
    <marker
       inkscape:isstock="true"
       style="overflow:visible"
       id="marker8172"
       refX="0"
       refY="0"
       orient="auto"
       inkscape:stockid="Arrow1Mend"
       inkscape:collect="always">
      <path
         inkscape:connector-curvature="0"
         transform="matrix(-0.4,0,0,-0.4,-4,0)"
         style="fill:#a1a1a1;fill-opacity:1;fill-rule:evenodd;stroke:#a1a1a1;stroke-width:1pt;stroke-opacity:1"
         d="M 0,0 5,-5 -12.5,0 5,5 0,0 Z"
         id="path8174" />
    </marker>
    <marker
       inkscape:isstock="true"
       style="overflow:visible"
       id="marker7844"
       refX="0"
       refY="0"
       orient="auto"
       inkscape:stockid="Arrow1Mend"
       inkscape:collect="always">
      <path
         inkscape:connector-curvature="0"
         transform="matrix(-0.4,0,0,-0.4,-4,0)"
         style="fill:#a1a1a1;fill-opacity:1;fill-rule:evenodd;stroke:#a1a1a1;stroke-width:1pt;stroke-opacity:1"
         d="M 0,0 5,-5 -12.5,0 5,5 0,0 Z"
         id="path7846" />
    </marker>
    <marker
       inkscape:stockid="Arrow1Mend"
       orient="auto"
       refY="0"
       refX="0"
       id="marker7618"
       style="overflow:visible"
       inkscape:isstock="true"
       inkscape:collect="always">
      <path
         id="path7620"
         d="M 0,0 5,-5 -12.5,0 5,5 0,0 Z"
         style="fill:#a1a1a1;fill-opacity:1;fill-rule:evenodd;stroke:#a1a1a1;stroke-width:1pt;stroke-opacity:1"
         transform="matrix(-0.4,0,0,-0.4,-4,0)"
         inkscape:connector-curvature="0" />
    </marker>
    <marker
       inkscape:isstock="true"
       style="overflow:visible"
       id="marker7366"
       refX="0"
       refY="0"
       orient="auto"
       inkscape:stockid="Arrow1Mend"
       inkscape:collect="always">
      <path
         inkscape:connector-curvature="0"
         transform="matrix(-0.4,0,0,-0.4,-4,0)"
         style="fill:#a1a1a1;fill-opacity:1;fill-rule:evenodd;stroke:#a1a1a1;stroke-width:1pt;stroke-opacity:1"
         d="M 0,0 5,-5 -12.5,0 5,5 0,0 Z"
         id="path7368" />
    </marker>
    <marker
       inkscape:stockid="Arrow1Mend"
       orient="auto"
       refY="0"
       refX="0"
       id="marker7060"
       style="overflow:visible"
       inkscape:isstock="true"
       inkscape:collect="always">
      <path
         id="path7062"
         d="M 0,0 5,-5 -12.5,0 5,5 0,0 Z"
         style="fill:#a1a1a1;fill-opacity:1;fill-rule:evenodd;stroke:#a1a1a1;stroke-width:1pt;stroke-opacity:1"
         transform="matrix(-0.4,0,0,-0.4,-4,0)"
         inkscape:connector-curvature="0" />
    </marker>
    <marker
       inkscape:isstock="true"
       style="overflow:visible"
       id="marker6666"
       refX="0"
       refY="0"
       orient="auto"
       inkscape:stockid="Arrow1Mend"
       inkscape:collect="always">
      <path
         inkscape:connector-curvature="0"
         transform="matrix(-0.4,0,0,-0.4,-4,0)"
         style="fill:#000000;fill-opacity:1;fill-rule:evenodd;stroke:#000000;stroke-width:1pt;stroke-opacity:1"
         d="M 0,0 5,-5 -12.5,0 5,5 0,0 Z"
         id="path6668" />
    </marker>
    <marker
       inkscape:isstock="true"
       style="overflow:visible"
       id="marker6482"
       refX="0"
       refY="0"
       orient="auto"
       inkscape:stockid="Arrow1Mstart">
      <path
         inkscape:connector-curvature="0"
         transform="matrix(0.4,0,0,0.4,4,0)"
         style="fill:#000000;fill-opacity:1;fill-rule:evenodd;stroke:#000000;stroke-width:1pt;stroke-opacity:1"
         d="M 0,0 5,-5 -12.5,0 5,5 0,0 Z"
         id="path6484" />
    </marker>
    <marker
       inkscape:isstock="true"
       style="overflow:visible"
       id="marker5230"
       refX="0"
       refY="0"
       orient="auto"
       inkscape:stockid="StopL">
      <path
         transform="scale(0.8,0.8)"
         style="fill:none;fill-opacity:0.75;fill-rule:evenodd;stroke:#000000;stroke-width:1pt;stroke-opacity:1"
         d="M 0,5.65 0,-5.65"
         id="path5232"
         inkscape:connector-curvature="0" />
    </marker>
    <marker
       inkscape:isstock="true"
       style="overflow:visible"
       id="marker5058"
       refX="0"
       refY="0"
       orient="auto"
       inkscape:stockid="StopL">
      <path
         transform="scale(0.8,0.8)"
         style="fill:none;fill-opacity:0.75;fill-rule:evenodd;stroke:#000000;stroke-width:1pt;stroke-opacity:1"
         d="M 0,5.65 0,-5.65"
         id="path5060"
         inkscape:connector-curvature="0" />
    </marker>
    <marker
       inkscape:stockid="StopL"
       orient="auto"
       refY="0"
       refX="0"
       id="StopL"
       style="overflow:visible"
       inkscape:isstock="true"
       inkscape:collect="always">
      <path
         id="path4678"
         d="M 0,5.65 0,-5.65"
         style="fill:none;fill-opacity:0.75;fill-rule:evenodd;stroke:#000000;stroke-width:1pt;stroke-opacity:1"
         transform="scale(0.8,0.8)"
         inkscape:connector-curvature="0" />
    </marker>
    <marker
       inkscape:isstock="true"
       style="overflow:visible"
       id="marker9259"
       refX="0"
       refY="0"
       orient="auto"
       inkscape:stockid="Arrow1Mend">
      <path
         transform="matrix(-0.4,0,0,-0.4,-4,0)"
         style="fill:#000000;fill-opacity:1;fill-rule:evenodd;stroke:#000000;stroke-width:1pt;stroke-opacity:1"
         d="M 0,0 5,-5 -12.5,0 5,5 0,0 Z"
         id="path9261"
         inkscape:connector-curvature="0" />
    </marker>
    <marker
       inkscape:isstock="true"
       style="overflow:visible"
       id="marker9105"
       refX="0"
       refY="0"
       orient="auto"
       inkscape:stockid="Arrow1Mstart">
      <path
         transform="matrix(0.4,0,0,0.4,4,0)"
         style="fill:#000000;fill-opacity:1;fill-rule:evenodd;stroke:#000000;stroke-width:1pt;stroke-opacity:1"
         d="M 0,0 5,-5 -12.5,0 5,5 0,0 Z"
         id="path9107"
         inkscape:connector-curvature="0" />
    </marker>
    <marker
       inkscape:stockid="Arrow1Mend"
       orient="auto"
       refY="0"
       refX="0"
       id="marker8713"
       style="overflow:visible"
       inkscape:isstock="true"
       inkscape:collect="always">
      <path
         id="path8715"
         d="M 0,0 5,-5 -12.5,0 5,5 0,0 Z"
         style="fill:#000000;fill-opacity:1;fill-rule:evenodd;stroke:#000000;stroke-width:1pt;stroke-opacity:1"
         transform="matrix(-0.4,0,0,-0.4,-4,0)"
         inkscape:connector-curvature="0" />
    </marker>
    <marker
       inkscape:stockid="Arrow1Mstart"
       orient="auto"
       refY="0"
       refX="0"
       id="marker8571"
       style="overflow:visible"
       inkscape:isstock="true"
       inkscape:collect="always">
      <path
         id="path8573"
         d="M 0,0 5,-5 -12.5,0 5,5 0,0 Z"
         style="fill:#000000;fill-opacity:1;fill-rule:evenodd;stroke:#000000;stroke-width:1pt;stroke-opacity:1"
         transform="matrix(0.4,0,0,0.4,4,0)"
         inkscape:connector-curvature="0" />
    </marker>
    <marker
       inkscape:isstock="true"
       style="overflow:visible"
       id="marker7245"
       refX="0"
       refY="0"
       orient="auto"
       inkscape:stockid="Arrow1Mend"
       inkscape:collect="always">
      <path
         transform="matrix(-0.4,0,0,-0.4,-4,0)"
         style="fill:#000000;fill-opacity:1;fill-rule:evenodd;stroke:#000000;stroke-width:1pt;stroke-opacity:1"
         d="M 0,0 5,-5 -12.5,0 5,5 0,0 Z"
         id="path7247"
         inkscape:connector-curvature="0" />
    </marker>
    <marker
       inkscape:isstock="true"
       style="overflow:visible"
       id="marker7115"
       refX="0"
       refY="0"
       orient="auto"
       inkscape:stockid="Arrow1Mstart"
       inkscape:collect="always">
      <path
         transform="matrix(0.4,0,0,0.4,4,0)"
         style="fill:#000000;fill-opacity:1;fill-rule:evenodd;stroke:#000000;stroke-width:1pt;stroke-opacity:1"
         d="M 0,0 5,-5 -12.5,0 5,5 0,0 Z"
         id="path7117"
         inkscape:connector-curvature="0" />
    </marker>
    <marker
       inkscape:stockid="Arrow1Mend"
       orient="auto"
       refY="0"
       refX="0"
       id="Arrow1Mend"
       style="overflow:visible"
       inkscape:isstock="true"
       inkscape:collect="always">
      <path
         id="path4198"
         d="M 0,0 5,-5 -12.5,0 5,5 0,0 Z"
         style="fill:#000000;fill-opacity:1;fill-rule:evenodd;stroke:#000000;stroke-width:1pt;stroke-opacity:1"
         transform="matrix(-0.4,0,0,-0.4,-4,0)"
         inkscape:connector-curvature="0" />
    </marker>
    <marker
       inkscape:stockid="Arrow1Mstart"
       orient="auto"
       refY="0"
       refX="0"
       id="Arrow1Mstart"
       style="overflow:visible"
       inkscape:isstock="true"
       inkscape:collect="always">
      <path
         id="path4195"
         d="M 0,0 5,-5 -12.5,0 5,5 0,0 Z"
         style="fill:#000000;fill-opacity:1;fill-rule:evenodd;stroke:#000000;stroke-width:1pt;stroke-opacity:1"
         transform="matrix(0.4,0,0,0.4,4,0)"
         inkscape:connector-curvature="0" />
    </marker>
    <marker
       inkscape:stockid="Arrow2Mend"
       orient="auto"
       refY="0"
       refX="0"
       id="marker6543"
       style="overflow:visible"
       inkscape:isstock="true">
      <path
         id="path6545"
         style="fill:#0000ff;fill-opacity:1;fill-rule:evenodd;stroke:#142aad;stroke-width:0.625;stroke-linejoin:round;stroke-opacity:1"
         d="M 8.7185878,4.0337352 -2.2072895,0.01601326 8.7185884,-4.0017078 c -1.7454984,2.3720609 -1.7354408,5.6174519 -6e-7,8.035443 z"
         transform="scale(-0.6,-0.6)"
         inkscape:connector-curvature="0" />
    </marker>
    <marker
       inkscape:isstock="true"
       style="overflow:visible"
       id="marker6399"
       refX="0"
       refY="0"
       orient="auto"
       inkscape:stockid="Arrow2Mend"
       inkscape:collect="always">
      <path
         transform="scale(-0.6,-0.6)"
         d="M 8.7185878,4.0337352 -2.2072895,0.01601326 8.7185884,-4.0017078 c -1.7454984,2.3720609 -1.7354408,5.6174519 -6e-7,8.035443 z"
         style="fill:#0000ff;fill-opacity:1;fill-rule:evenodd;stroke:#142aad;stroke-width:0.625;stroke-linejoin:round;stroke-opacity:1"
         id="path6401"
         inkscape:connector-curvature="0" />
    </marker>
    <marker
       inkscape:stockid="Arrow2Mend"
       orient="auto"
       refY="0"
       refX="0"
       id="marker6279"
       style="overflow:visible"
       inkscape:isstock="true"
       inkscape:collect="always">
      <path
         id="path6281"
         style="fill:#0000ff;fill-opacity:1;fill-rule:evenodd;stroke:#142aad;stroke-width:0.625;stroke-linejoin:round;stroke-opacity:1"
         d="M 8.7185878,4.0337352 -2.2072895,0.01601326 8.7185884,-4.0017078 c -1.7454984,2.3720609 -1.7354408,5.6174519 -6e-7,8.035443 z"
         transform="scale(-0.6,-0.6)"
         inkscape:connector-curvature="0" />
    </marker>
    <marker
       inkscape:stockid="Arrow2Mend"
       orient="auto"
       refY="0"
       refX="0"
       id="marker6021"
       style="overflow:visible"
       inkscape:isstock="true"
       inkscape:collect="always">
      <path
         id="path6023"
         style="fill:#0000ff;fill-opacity:1;fill-rule:evenodd;stroke:#142aad;stroke-width:0.625;stroke-linejoin:round;stroke-opacity:1"
         d="M 8.7185878,4.0337352 -2.2072895,0.01601326 8.7185884,-4.0017078 c -1.7454984,2.3720609 -1.7354408,5.6174519 -6e-7,8.035443 z"
         transform="scale(-0.6,-0.6)"
         inkscape:connector-curvature="0" />
    </marker>
    <marker
       inkscape:isstock="true"
       style="overflow:visible"
       id="marker5901"
       refX="0"
       refY="0"
       orient="auto"
       inkscape:stockid="Arrow2Mend"
       inkscape:collect="always">
      <path
         transform="scale(-0.6,-0.6)"
         d="M 8.7185878,4.0337352 -2.2072895,0.01601326 8.7185884,-4.0017078 c -1.7454984,2.3720609 -1.7354408,5.6174519 -6e-7,8.035443 z"
         style="fill:#0000ff;fill-opacity:1;fill-rule:evenodd;stroke:#142aad;stroke-width:0.625;stroke-linejoin:round;stroke-opacity:1"
         id="path5903"
         inkscape:connector-curvature="0" />
    </marker>
    <marker
       inkscape:stockid="Arrow2Mend"
       orient="auto"
       refY="0"
       refX="0"
       id="marker5793"
       style="overflow:visible"
       inkscape:isstock="true"
       inkscape:collect="always">
      <path
         id="path5795"
         style="fill:#0000ff;fill-opacity:1;fill-rule:evenodd;stroke:#142aad;stroke-width:0.625;stroke-linejoin:round;stroke-opacity:1"
         d="M 8.7185878,4.0337352 -2.2072895,0.01601326 8.7185884,-4.0017078 c -1.7454984,2.3720609 -1.7354408,5.6174519 -6e-7,8.035443 z"
         transform="scale(-0.6,-0.6)"
         inkscape:connector-curvature="0" />
    </marker>
    <marker
       inkscape:isstock="true"
       style="overflow:visible"
       id="marker5685"
       refX="0"
       refY="0"
       orient="auto"
       inkscape:stockid="Arrow2Mend"
       inkscape:collect="always">
      <path
         transform="scale(-0.6,-0.6)"
         d="M 8.7185878,4.0337352 -2.2072895,0.01601326 8.7185884,-4.0017078 c -1.7454984,2.3720609 -1.7354408,5.6174519 -6e-7,8.035443 z"
         style="fill:#0000ff;fill-opacity:1;fill-rule:evenodd;stroke:#142aad;stroke-width:0.625;stroke-linejoin:round;stroke-opacity:1"
         id="path5687"
         inkscape:connector-curvature="0" />
    </marker>
    <marker
       inkscape:stockid="Arrow2Mend"
       orient="auto"
       refY="0"
       refX="0"
       id="marker5583"
       style="overflow:visible"
       inkscape:isstock="true"
       inkscape:collect="always">
      <path
         id="path5585"
         style="fill:#0000ff;fill-opacity:1;fill-rule:evenodd;stroke:#142aad;stroke-width:0.625;stroke-linejoin:round;stroke-opacity:1"
         d="M 8.7185878,4.0337352 -2.2072895,0.01601326 8.7185884,-4.0017078 c -1.7454984,2.3720609 -1.7354408,5.6174519 -6e-7,8.035443 z"
         transform="scale(-0.6,-0.6)"
         inkscape:connector-curvature="0" />
    </marker>
    <marker
       inkscape:isstock="true"
       style="overflow:visible"
       id="marker5487"
       refX="0"
       refY="0"
       orient="auto"
       inkscape:stockid="Arrow2Mend"
       inkscape:collect="always">
      <path
         transform="scale(-0.6,-0.6)"
         d="M 8.7185878,4.0337352 -2.2072895,0.01601326 8.7185884,-4.0017078 c -1.7454984,2.3720609 -1.7354408,5.6174519 -6e-7,8.035443 z"
         style="fill:#0000ff;fill-opacity:1;fill-rule:evenodd;stroke:#142aad;stroke-width:0.625;stroke-linejoin:round;stroke-opacity:1"
         id="path5489"
         inkscape:connector-curvature="0" />
    </marker>
    <marker
       inkscape:stockid="Arrow2Mend"
       orient="auto"
       refY="0"
       refX="0"
       id="marker5397"
       style="overflow:visible"
       inkscape:isstock="true"
       inkscape:collect="always">
      <path
         id="path5399"
         style="fill:#0000ff;fill-opacity:1;fill-rule:evenodd;stroke:#142aad;stroke-width:0.625;stroke-linejoin:round;stroke-opacity:1"
         d="M 8.7185878,4.0337352 -2.2072895,0.01601326 8.7185884,-4.0017078 c -1.7454984,2.3720609 -1.7354408,5.6174519 -6e-7,8.035443 z"
         transform="scale(-0.6,-0.6)"
         inkscape:connector-curvature="0" />
    </marker>
    <marker
       inkscape:isstock="true"
       style="overflow:visible"
       id="marker5319"
       refX="0"
       refY="0"
       orient="auto"
       inkscape:stockid="Arrow2Mend"
       inkscape:collect="always">
      <path
         transform="scale(-0.6,-0.6)"
         d="M 8.7185878,4.0337352 -2.2072895,0.01601326 8.7185884,-4.0017078 c -1.7454984,2.3720609 -1.7354408,5.6174519 -6e-7,8.035443 z"
         style="fill:#0000ff;fill-opacity:1;fill-rule:evenodd;stroke:#142aad;stroke-width:0.625;stroke-linejoin:round;stroke-opacity:1"
         id="path5321"
         inkscape:connector-curvature="0" />
    </marker>
    <marker
       inkscape:stockid="Arrow2Mend"
       orient="auto"
       refY="0"
       refX="0"
       id="marker5247"
       style="overflow:visible"
       inkscape:isstock="true"
       inkscape:collect="always">
      <path
         id="path5249"
         style="fill:#0000ff;fill-opacity:1;fill-rule:evenodd;stroke:#142aad;stroke-width:0.625;stroke-linejoin:round;stroke-opacity:1"
         d="M 8.7185878,4.0337352 -2.2072895,0.01601326 8.7185884,-4.0017078 c -1.7454984,2.3720609 -1.7354408,5.6174519 -6e-7,8.035443 z"
         transform="scale(-0.6,-0.6)"
         inkscape:connector-curvature="0" />
    </marker>
    <marker
       inkscape:isstock="true"
       style="overflow:visible"
       id="marker5175"
       refX="0"
       refY="0"
       orient="auto"
       inkscape:stockid="Arrow2Mend"
       inkscape:collect="always">
      <path
         transform="scale(-0.6,-0.6)"
         d="M 8.7185878,4.0337352 -2.2072895,0.01601326 8.7185884,-4.0017078 c -1.7454984,2.3720609 -1.7354408,5.6174519 -6e-7,8.035443 z"
         style="fill:#0000ff;fill-opacity:1;fill-rule:evenodd;stroke:#142aad;stroke-width:0.625;stroke-linejoin:round;stroke-opacity:1"
         id="path5177"
         inkscape:connector-curvature="0" />
    </marker>
    <marker
       inkscape:isstock="true"
       style="overflow:visible"
       id="marker5067"
       refX="0"
       refY="0"
       orient="auto"
       inkscape:stockid="Arrow2Mend">
      <path
         transform="scale(-0.6,-0.6)"
         d="M 8.7185878,4.0337352 -2.2072895,0.01601326 8.7185884,-4.0017078 c -1.7454984,2.3720609 -1.7354408,5.6174519 -6e-7,8.035443 z"
         style="fill:#0000ff;fill-opacity:1;fill-rule:evenodd;stroke:#142aad;stroke-width:0.625;stroke-linejoin:round;stroke-opacity:1"
         id="path5069"
         inkscape:connector-curvature="0" />
    </marker>
    <marker
       inkscape:stockid="Arrow2Mend"
       orient="auto"
       refY="0"
       refX="0"
       id="Arrow2Mend"
       style="overflow:visible"
       inkscape:isstock="true"
       inkscape:collect="always">
      <path
         id="path4216"
         style="fill:#0000ff;fill-opacity:1;fill-rule:evenodd;stroke:#142aad;stroke-width:0.625;stroke-linejoin:round;stroke-opacity:1"
         d="M 8.7185878,4.0337352 -2.2072895,0.01601326 8.7185884,-4.0017078 c -1.7454984,2.3720609 -1.7354408,5.6174519 -6e-7,8.035443 z"
         transform="scale(-0.6,-0.6)"
         inkscape:connector-curvature="0" />
    </marker>
    <marker
       inkscape:stockid="SquareM"
       orient="auto"
       refY="0"
       refX="0"
       id="SquareM"
       style="overflow:visible"
       inkscape:isstock="true">
      <path
         id="path4262"
         d="M -5,-5 -5,5 5,5 5,-5 -5,-5 Z"
         style="fill:#ec3000;fill-opacity:1;fill-rule:evenodd;stroke:#ec3000;stroke-width:1pt;stroke-opacity:1"
         transform="scale(0.4,0.4)"
         inkscape:connector-curvature="0" />
    </marker>
    <marker
       inkscape:stockid="DiamondL"
       orient="auto"
       refY="0"
       refX="0"
       id="DiamondL"
       style="overflow:visible"
       inkscape:isstock="true">
      <path
         id="path4268"
         d="M 0,-7.0710768 -7.0710894,0 0,7.0710589 7.0710462,0 0,-7.0710768 Z"
         style="fill:#ec3000;fill-opacity:1;fill-rule:evenodd;stroke:#ec3000;stroke-width:1pt;stroke-opacity:1"
         transform="scale(0.8,0.8)"
         inkscape:connector-curvature="0" />
    </marker>
  </defs>
  <sodipodi:namedview
     id="base"
     pagecolor="#ffffff"
     bordercolor="#666666"
     borderopacity="1.0"
     inkscape:pageopacity="0.0"
     inkscape:pageshadow="2"
     inkscape:zoom="0.80662294"
     inkscape:cx="478.50605"
     inkscape:cy="112.15034"
     inkscape:document-units="px"
     inkscape:current-layer="g10769"
     showgrid="false"
     inkscape:window-width="1440"
     inkscape:window-height="856"
     inkscape:window-x="74"
     inkscape:window-y="43"
     inkscape:window-maximized="0"
     fit-margin-top="0"
     fit-margin-left="0"
     fit-margin-right="0"
     fit-margin-bottom="0" />
  <metadata
     id="metadata7">
    <rdf:RDF>
      <cc:Work
         rdf:about="">
        <dc:format>image/svg+xml</dc:format>
        <dc:type
           rdf:resource="http://purl.org/dc/dcmitype/StillImage" />
        <dc:title></dc:title>
      </cc:Work>
    </rdf:RDF>
  </metadata>
  <g
     inkscape:label="Layer 1"
     inkscape:groupmode="layer"
     id="layer1"
     transform="translate(45.470186,-57.852555)">
    <path
       style="fill:none;stroke:#000000;stroke-width:1px;stroke-linecap:butt;stroke-linejoin:miter;stroke-opacity:1"
       d="m 506.00616,250.24585 -421.510459,0"
       id="path5048"
       inkscape:connector-curvature="0" />
    <path
       sodipodi:nodetypes="cccc"
       inkscape:connector-curvature="0"
       id="path5044"
       d="m 63.571473,268.36944 21.03904,-16.6559 1.75325,-182.338246 -21.03904,16.6559"
       style="fill:none;stroke:#000000;stroke-width:1px;stroke-linecap:butt;stroke-linejoin:miter;stroke-opacity:1" />
    <path
       style="fill:#ffffff;fill-opacity:0.80225986;stroke:#000000;stroke-width:2;stroke-linecap:butt;stroke-linejoin:miter;stroke-miterlimit:4;stroke-dasharray:none;stroke-opacity:1"
       d="m 65.659915,86.656371 0,181.827459 418.203155,0 1.01015,-181.827459 z"
       id="path4136"
       inkscape:connector-curvature="0" />
    <path
       style="fill:none;stroke:#000000;stroke-width:1px;stroke-linecap:butt;stroke-linejoin:miter;stroke-opacity:1"
       d="m 342.24978,269.595 0,24.04163"
       id="path9937"
       inkscape:connector-curvature="0" />
    <path
       inkscape:connector-curvature="0"
       id="path9935"
       d="m 224.24978,269.595 0,24.04163"
       style="fill:none;stroke:#000000;stroke-width:1px;stroke-linecap:butt;stroke-linejoin:miter;stroke-opacity:1" />
    <path
       style="opacity:0.50899999;fill:#e6e6e6;stroke:#000000;stroke-width:1px;stroke-linecap:butt;stroke-linejoin:miter;stroke-opacity:0.24858757"
       d="m 66.78807,267.65807 -0.93092,-20.15301 c 0,0 182.49358,-14.97157 212.71427,-25.14286 30.2207,-10.17129 205.56328,-15.71428 205.56328,-15.71428 l -0.0191,61.83591 z"
       id="path6815"
       inkscape:connector-curvature="0"
       sodipodi:nodetypes="cczccc" />
    <path
       style="fill:none;stroke:#0013be;stroke-width:4;stroke-linecap:butt;stroke-linejoin:miter;stroke-miterlimit:4;stroke-dasharray:none;stroke-opacity:1"
       d="m 66.44166,268.48383 417.42141,0"
       id="path4138"
       inkscape:connector-curvature="0"
       sodipodi:nodetypes="cc" />
    <text
       xml:space="preserve"
       style="font-style:normal;font-weight:normal;font-size:12.5px;line-height:100%;font-family:sans-serif;letter-spacing:0px;word-spacing:0px;fill:#000000;fill-opacity:1;stroke:none;stroke-width:1px;stroke-linecap:butt;stroke-linejoin:miter;stroke-opacity:1"
       x="213.14218"
       y="100.79851"
       id="text4140"
       sodipodi:linespacing="100%"><tspan
         sodipodi:role="line"
         id="tspan4142"
         x="213.14218"
         y="100.79851"
         style="font-size:15px">freestream</tspan></text>
    <text
       xml:space="preserve"
       style="font-style:normal;font-weight:normal;font-size:12.5px;line-height:100%;font-family:sans-serif;letter-spacing:0px;word-spacing:0px;fill:#000000;fill-opacity:1;stroke:none;stroke-width:1px;stroke-linecap:butt;stroke-linejoin:miter;stroke-opacity:1"
       x="-194.21938"
       y="82.179565"
       id="text4144"
       sodipodi:linespacing="100%"
       transform="matrix(0,-1,1,0,0,0)"><tspan
         sodipodi:role="line"
         id="tspan4146"
         x="-194.21938"
         y="82.179565"
         style="font-size:15px">inlet</tspan></text>
    <text
       xml:space="preserve"
       style="font-style:normal;font-weight:normal;font-size:12.5px;line-height:100%;font-family:sans-serif;letter-spacing:0px;word-spacing:0px;fill:#000000;fill-opacity:1;stroke:none;stroke-width:1px;stroke-linecap:butt;stroke-linejoin:miter;stroke-opacity:1"
       x="152.66171"
       y="-470.21225"
       id="text4152"
       sodipodi:linespacing="100%"
       transform="matrix(0,1,-1,0,0,0)"><tspan
         sodipodi:role="line"
         id="tspan4154"
         x="152.66171"
         y="-470.21225"
         style="font-size:15px">outlet</tspan></text>
    <text
       xml:space="preserve"
       style="font-style:normal;font-weight:normal;font-size:12.5px;line-height:100%;font-family:sans-serif;letter-spacing:0px;word-spacing:0px;fill:#0000ff;fill-opacity:1;stroke:none;stroke-width:1px;stroke-linecap:butt;stroke-linejoin:miter;stroke-opacity:1"
       x="396.78793"
       y="260.50363"
       id="text4156"
       sodipodi:linespacing="100%"><tspan
         sodipodi:role="line"
         id="tspan4158"
         x="396.78793"
         y="260.50363"
         style="font-size:15px;fill:#0000ff">wall</tspan></text>
    <text
       xml:space="preserve"
       style="font-style:normal;font-weight:normal;font-size:12.5px;line-height:100%;font-family:sans-serif;letter-spacing:0px;word-spacing:0px;fill:#0000ff;fill-opacity:1;stroke:none;stroke-width:1px;stroke-linecap:butt;stroke-linejoin:miter;stroke-opacity:1"
       x="236.02217"
       y="251.00819"
       id="text4160"
       sodipodi:linespacing="100%"><tspan
         sodipodi:role="line"
         id="tspan4162"
         x="236.02217"
         y="251.00819"
         style="font-size:15px;fill:#0000ff">transpiration</tspan></text>
    <path
       style="fill:none;stroke:#ec3000;stroke-width:2;stroke-linecap:butt;stroke-linejoin:miter;stroke-miterlimit:4;stroke-dasharray:none;stroke-opacity:1;marker-start:url(#SquareM);marker-end:url(#SquareM)"
       d="m 225.26402,268.48383 117.17769,0"
       id="path4183"
       inkscape:connector-curvature="0" />
    <path
       style="fill:#0000ff;stroke:#142aad;stroke-width:1;stroke-linecap:butt;stroke-linejoin:miter;stroke-miterlimit:4;stroke-dasharray:none;stroke-opacity:1;marker-end:url(#Arrow2Mend)"
       d="m 234.60793,272.01936 0,-16.69139"
       id="path4869"
       inkscape:connector-curvature="0" />
    <path
       inkscape:connector-curvature="0"
       id="path5173"
       d="m 242.60793,272.01936 0,-16.69139"
       style="fill:#0000ff;stroke:#142aad;stroke-width:1;stroke-linecap:butt;stroke-linejoin:miter;stroke-miterlimit:4;stroke-dasharray:none;stroke-opacity:1;marker-end:url(#marker5175)" />
    <path
       style="fill:#0000ff;stroke:#142aad;stroke-width:1;stroke-linecap:butt;stroke-linejoin:miter;stroke-miterlimit:4;stroke-dasharray:none;stroke-opacity:1;marker-end:url(#marker5247)"
       d="m 250.60793,272.01936 0,-16.69139"
       id="path5245"
       inkscape:connector-curvature="0" />
    <path
       inkscape:connector-curvature="0"
       id="path5317"
       d="m 258.60793,272.01936 0,-16.69139"
       style="fill:#0000ff;stroke:#142aad;stroke-width:1;stroke-linecap:butt;stroke-linejoin:miter;stroke-miterlimit:4;stroke-dasharray:none;stroke-opacity:1;marker-end:url(#marker5319)" />
    <path
       style="fill:#0000ff;stroke:#142aad;stroke-width:1;stroke-linecap:butt;stroke-linejoin:miter;stroke-miterlimit:4;stroke-dasharray:none;stroke-opacity:1;marker-end:url(#marker5397)"
       d="m 266.60793,272.01936 0,-16.69139"
       id="path5395"
       inkscape:connector-curvature="0" />
    <path
       inkscape:connector-curvature="0"
       id="path5485"
       d="m 274.60793,272.01936 0,-16.69139"
       style="fill:#0000ff;stroke:#142aad;stroke-width:1;stroke-linecap:butt;stroke-linejoin:miter;stroke-miterlimit:4;stroke-dasharray:none;stroke-opacity:1;marker-end:url(#marker5487)" />
    <path
       style="fill:#0000ff;stroke:#142aad;stroke-width:1;stroke-linecap:butt;stroke-linejoin:miter;stroke-miterlimit:4;stroke-dasharray:none;stroke-opacity:1;marker-end:url(#marker5583)"
       d="m 282.60793,272.01936 0,-16.69139"
       id="path5581"
       inkscape:connector-curvature="0" />
    <path
       inkscape:connector-curvature="0"
       id="path5683"
       d="m 290.60793,272.01936 0,-16.69139"
       style="fill:#0000ff;stroke:#142aad;stroke-width:1;stroke-linecap:butt;stroke-linejoin:miter;stroke-miterlimit:4;stroke-dasharray:none;stroke-opacity:1;marker-end:url(#marker5685)" />
    <path
       style="fill:#0000ff;stroke:#142aad;stroke-width:1;stroke-linecap:butt;stroke-linejoin:miter;stroke-miterlimit:4;stroke-dasharray:none;stroke-opacity:1;marker-end:url(#marker5793)"
       d="m 298.60793,272.01936 0,-16.69139"
       id="path5791"
       inkscape:connector-curvature="0" />
    <path
       inkscape:connector-curvature="0"
       id="path5899"
       d="m 306.60793,272.01936 0,-16.69139"
       style="fill:#0000ff;stroke:#142aad;stroke-width:1;stroke-linecap:butt;stroke-linejoin:miter;stroke-miterlimit:4;stroke-dasharray:none;stroke-opacity:1;marker-end:url(#marker5901)" />
    <path
       style="fill:#0000ff;stroke:#142aad;stroke-width:1;stroke-linecap:butt;stroke-linejoin:miter;stroke-miterlimit:4;stroke-dasharray:none;stroke-opacity:1;marker-end:url(#marker6021)"
       d="m 314.60793,272.01936 0,-16.69139"
       id="path6019"
       inkscape:connector-curvature="0" />
    <path
       style="fill:#0000ff;stroke:#142aad;stroke-width:1;stroke-linecap:butt;stroke-linejoin:miter;stroke-miterlimit:4;stroke-dasharray:none;stroke-opacity:1;marker-end:url(#marker6279)"
       d="m 322.60793,272.01936 0,-16.69139"
       id="path6277"
       inkscape:connector-curvature="0" />
    <path
       inkscape:connector-curvature="0"
       id="path6397"
       d="m 330.60793,272.01936 0,-16.69139"
       style="fill:#0000ff;stroke:#142aad;stroke-width:1;stroke-linecap:butt;stroke-linejoin:miter;stroke-miterlimit:4;stroke-dasharray:none;stroke-opacity:1;marker-end:url(#marker6399)" />
    <path
       style="fill:none;stroke:#000000;stroke-width:1px;stroke-linecap:butt;stroke-linejoin:miter;stroke-opacity:1"
       d="m 143.94673,268.48383 c 0,0 -3.28299,-0.25254 0,0 z"
       id="path6817"
       inkscape:connector-curvature="0"
       sodipodi:nodetypes="cc" />
    <path
       style="fill:none;stroke:#000000;stroke-width:0.75;stroke-linecap:butt;stroke-linejoin:miter;stroke-miterlimit:4;stroke-dasharray:none;stroke-opacity:1;marker-start:url(#Arrow1Mstart);marker-end:url(#Arrow1Mend)"
       d="m 120.71323,88.676676 0,178.797004"
       id="path6819"
       inkscape:connector-curvature="0" />
    <path
       inkscape:connector-curvature="0"
       id="path7113"
       d="m 483.76205,117.264 -414.970662,0"
       style="fill:none;stroke:#000000;stroke-width:0.75;stroke-linecap:butt;stroke-linejoin:miter;stroke-miterlimit:4;stroke-dasharray:none;stroke-opacity:1;marker-start:url(#marker7115);marker-end:url(#marker7245)"
       sodipodi:nodetypes="cc" />
    <path
       sodipodi:nodetypes="ccc"
       style="fill:none;stroke:#000000;stroke-width:0.75;stroke-linecap:butt;stroke-linejoin:miter;stroke-miterlimit:4;stroke-dasharray:none;stroke-opacity:1;marker-start:url(#marker6482);marker-end:url(#marker6666)"
       d="m 223.54675,283.43409 -47.117,0 -108.269961,0"
       id="path8569"
       inkscape:connector-curvature="0" />
    <path
       style="fill:none;stroke:#000000;stroke-width:1px;stroke-linecap:butt;stroke-linejoin:miter;stroke-opacity:1"
       d="m 66.456307,269.28507 0,24.04163"
       id="path9077"
       inkscape:connector-curvature="0" />
    <path
       inkscape:connector-curvature="0"
       id="path9103"
       d="m 341.63359,283.43409 -115.15739,0"
       style="fill:none;stroke:#000000;stroke-width:0.75;stroke-linecap:butt;stroke-linejoin:miter;stroke-miterlimit:4;stroke-dasharray:none;stroke-opacity:1;marker-start:url(#marker9105);marker-end:url(#marker9259)"
       sodipodi:nodetypes="cc" />
    <text
       xml:space="preserve"
       style="font-style:normal;font-weight:normal;font-size:12.5px;line-height:100%;font-family:sans-serif;letter-spacing:0px;word-spacing:0px;fill:#999999;fill-opacity:1;stroke:none;stroke-width:1px;stroke-linecap:butt;stroke-linejoin:miter;stroke-opacity:1"
       x="339.86664"
       y="242.5619"
       id="text10755"
       sodipodi:linespacing="100%"
       transform="matrix(0.99837921,-0.05691174,0.05691174,0.99837921,0,0)"><tspan
         sodipodi:role="line"
         id="tspan10757"
         x="339.86664"
         y="242.5619">boundary layer</tspan></text>
    <g
       id="g10769"
       transform="translate(7.0710678,-14.142136)">
      <rect
         y="125.34521"
         x="230.51682"
         height="16.263456"
         width="49.497475"
         id="rect10767"
         style="opacity:1;fill:#ffffff;fill-opacity:1;fill-rule:nonzero;stroke:none;stroke-width:4;stroke-linecap:round;stroke-linejoin:round;stroke-miterlimit:4;stroke-dasharray:none;stroke-dashoffset:0;stroke-opacity:1" />
      <text
         sodipodi:linespacing="100%"
         id="text10759"
         y="137.36603"
         x="240.05234"
         style="font-style:normal;font-weight:normal;font-size:12.5px;line-height:100%;font-family:sans-serif;letter-spacing:0px;word-spacing:0px;fill:#000000;fill-opacity:1;stroke:none;stroke-width:1px;stroke-linecap:butt;stroke-linejoin:miter;stroke-opacity:1"
         xml:space="preserve"><tspan
           y="137.36603"
           x="240.05234"
           id="tspan10761"
           sodipodi:role="line">60 </tspan></text>
      <path
         inkscape:connector-curvature="0"
         id="path7050"
         d="m 580.73198,273.89116 0,-175.763546"
         style="fill:none;stroke:#868686;stroke-width:0.75;stroke-linecap:butt;stroke-linejoin:miter;stroke-miterlimit:4;stroke-dasharray:none;stroke-opacity:1"
         sodipodi:nodetypes="cc" />
      <path
         style="fill:none;stroke:#a1a1a1;stroke-width:0.75;stroke-linecap:butt;stroke-linejoin:miter;stroke-miterlimit:4;stroke-dasharray:none;stroke-opacity:1;marker-end:url(#marker7060)"
         d="m 540.5804,273.47487 37.69492,0"
         id="path7052"
         inkscape:connector-curvature="0" />
      <path
         inkscape:connector-curvature="0"
         id="path7364"
         d="m 540.5804,253.63908 37.69492,0"
         style="fill:none;stroke:#a1a1a1;stroke-width:0.75;stroke-linecap:butt;stroke-linejoin:miter;stroke-miterlimit:4;stroke-dasharray:none;stroke-opacity:1;marker-end:url(#marker7366)" />
      <path
         style="fill:none;stroke:#a1a1a1;stroke-width:0.75;stroke-linecap:butt;stroke-linejoin:miter;stroke-miterlimit:4;stroke-dasharray:none;stroke-opacity:1;marker-end:url(#marker7618)"
         d="m 540.5804,253.63908 37.69492,0"
         id="path7616"
         inkscape:connector-curvature="0" />
      <path
         inkscape:connector-curvature="0"
         id="path7838"
         d="m 540.5804,235.47487 37.69492,0"
         style="fill:none;stroke:#a1a1a1;stroke-width:0.75;stroke-linecap:butt;stroke-linejoin:miter;stroke-miterlimit:4;stroke-dasharray:none;stroke-opacity:1;marker-end:url(#marker7844)" />
      <path
         style="fill:none;stroke:#a1a1a1;stroke-width:0.75;stroke-linecap:butt;stroke-linejoin:miter;stroke-miterlimit:4;stroke-dasharray:none;stroke-opacity:1;marker-end:url(#marker7366)"
         d="m 540.5804,215.63908 37.69492,0"
         id="path7840"
         inkscape:connector-curvature="0" />
      <path
         inkscape:connector-curvature="0"
         id="path7842"
         d="m 540.5804,215.63908 37.69492,0"
         style="fill:none;stroke:#a1a1a1;stroke-width:0.75;stroke-linecap:butt;stroke-linejoin:miter;stroke-miterlimit:4;stroke-dasharray:none;stroke-opacity:1;marker-end:url(#marker8172)" />
      <path
         inkscape:connector-curvature="0"
         id="path8398"
         d="m 540.5804,195.47487 37.69492,0"
         style="fill:none;stroke:#a1a1a1;stroke-width:0.75;stroke-linecap:butt;stroke-linejoin:miter;stroke-miterlimit:4;stroke-dasharray:none;stroke-opacity:1;marker-end:url(#marker8410)" />
      <path
         style="fill:none;stroke:#a1a1a1;stroke-width:0.75;stroke-linecap:butt;stroke-linejoin:miter;stroke-miterlimit:4;stroke-dasharray:none;stroke-opacity:1;marker-end:url(#marker7366)"
         d="m 540.5804,175.63908 37.69492,0"
         id="path8400"
         inkscape:connector-curvature="0" />
      <path
         inkscape:connector-curvature="0"
         id="path8402"
         d="m 540.5804,175.63908 37.69492,0"
         style="fill:none;stroke:#a1a1a1;stroke-width:0.75;stroke-linecap:butt;stroke-linejoin:miter;stroke-miterlimit:4;stroke-dasharray:none;stroke-opacity:1;marker-end:url(#marker7618)" />
      <path
         style="fill:none;stroke:#a1a1a1;stroke-width:0.75;stroke-linecap:butt;stroke-linejoin:miter;stroke-miterlimit:4;stroke-dasharray:none;stroke-opacity:1;marker-end:url(#marker7844)"
         d="m 540.5804,157.47487 37.69492,0"
         id="path8404"
         inkscape:connector-curvature="0" />
      <path
         inkscape:connector-curvature="0"
         id="path8406"
         d="m 540.5804,137.63908 37.69492,0"
         style="fill:none;stroke:#a1a1a1;stroke-width:0.75;stroke-linecap:butt;stroke-linejoin:miter;stroke-miterlimit:4;stroke-dasharray:none;stroke-opacity:1;marker-end:url(#marker7366)" />
      <path
         style="fill:none;stroke:#a1a1a1;stroke-width:0.75;stroke-linecap:butt;stroke-linejoin:miter;stroke-miterlimit:4;stroke-dasharray:none;stroke-opacity:1;marker-end:url(#marker8828)"
         d="m 540.5804,137.63908 37.69492,0"
         id="path8408"
         inkscape:connector-curvature="0" />
      <path
         style="fill:none;stroke:#a1a1a1;stroke-width:0.75;stroke-linecap:butt;stroke-linejoin:miter;stroke-miterlimit:4;stroke-dasharray:none;stroke-opacity:1;marker-end:url(#marker9078)"
         d="m 540.5804,137.47487 37.69492,0"
         id="path9066"
         inkscape:connector-curvature="0" />
      <path
         inkscape:connector-curvature="0"
         id="path9068"
         d="m 540.5804,117.63908 37.69492,0"
         style="fill:none;stroke:#a1a1a1;stroke-width:0.75;stroke-linecap:butt;stroke-linejoin:miter;stroke-miterlimit:4;stroke-dasharray:none;stroke-opacity:1;marker-end:url(#marker7366)" />
      <path
         style="fill:none;stroke:#a1a1a1;stroke-width:0.75;stroke-linecap:butt;stroke-linejoin:miter;stroke-miterlimit:4;stroke-dasharray:none;stroke-opacity:1;marker-end:url(#marker7618)"
         d="m 540.5804,117.63908 37.69492,0"
         id="path9070"
         inkscape:connector-curvature="0" />
      <path
         inkscape:connector-curvature="0"
         id="path9072"
         d="m 540.5804,99.474874 37.69492,0"
         style="fill:none;stroke:#a1a1a1;stroke-width:0.75;stroke-linecap:butt;stroke-linejoin:miter;stroke-miterlimit:4;stroke-dasharray:none;stroke-opacity:1;marker-end:url(#marker10002)" />
      <g
         id="g10658"
         transform="translate(1069.7196,-110.5924)">
        <text
           sodipodi:linespacing="100%"
           id="text10270"
           y="302.08069"
           x="-518.79285"
           style="font-style:normal;font-weight:normal;font-size:12.5px;line-height:100%;font-family:sans-serif;letter-spacing:0px;word-spacing:0px;fill:#999999;fill-opacity:1;stroke:none;stroke-width:1px;stroke-linecap:butt;stroke-linejoin:miter;stroke-opacity:1"
           xml:space="preserve"><tspan
             y="302.08069"
             x="-518.79285"
             id="tspan10272"
             sodipodi:role="line">V</tspan></text>
        <path
           sodipodi:nodetypes="cc"
           style="fill:none;stroke:#a1a1a1;stroke-width:0.75;stroke-linecap:butt;stroke-linejoin:miter;stroke-miterlimit:4;stroke-dasharray:none;stroke-opacity:1;marker-end:url(#marker10282)"
           d="m -519.93458,290.70659 10.95782,0"
           id="path10280"
           inkscape:connector-curvature="0" />
      </g>
      <g
         id="g13544"
         transform="translate(-40,0)">
        <path
           inkscape:connector-curvature="0"
           id="path10663"
           d="m -12.541254,277.09686 c 42.078056,0 40.324804,-38.57156 40.324804,-38.57156 l 0,-136.31537"
           style="fill:none;stroke:#868686;stroke-width:0.75;stroke-linecap:butt;stroke-linejoin:miter;stroke-miterlimit:4;stroke-dasharray:none;stroke-opacity:1"
           sodipodi:nodetypes="ccc" />
        <path
           sodipodi:nodetypes="cc"
           style="fill:none;stroke:#a1a1a1;stroke-width:0.75;stroke-linecap:butt;stroke-linejoin:miter;stroke-miterlimit:4;stroke-dasharray:none;stroke-opacity:1;marker-end:url(#marker11713)"
           d="m -11.929717,269.66756 24.107214,0"
           id="path10665"
           inkscape:connector-curvature="0" />
        <path
           sodipodi:nodetypes="cc"
           style="fill:none;stroke:#a1a1a1;stroke-width:0.75;stroke-linecap:butt;stroke-linejoin:miter;stroke-miterlimit:4;stroke-dasharray:none;stroke-opacity:1;marker-end:url(#marker10979)"
           d="m -12.36803,257.7214 33.750102,0"
           id="path10669"
           inkscape:connector-curvature="0" />
        <path
           inkscape:connector-curvature="0"
           id="path10671"
           d="m -12.36803,239.55719 37.69492,0"
           style="fill:none;stroke:#a1a1a1;stroke-width:0.75;stroke-linecap:butt;stroke-linejoin:miter;stroke-miterlimit:4;stroke-dasharray:none;stroke-opacity:1;marker-end:url(#marker10705)" />
        <path
           style="fill:none;stroke:#a1a1a1;stroke-width:0.75;stroke-linecap:butt;stroke-linejoin:miter;stroke-miterlimit:4;stroke-dasharray:none;stroke-opacity:1;marker-end:url(#marker7366)"
           d="m -12.36803,219.7214 37.69492,0"
           id="path10673"
           inkscape:connector-curvature="0" />
        <path
           inkscape:connector-curvature="0"
           id="path10675"
           d="m -12.36803,219.7214 37.69492,0"
           style="fill:none;stroke:#a1a1a1;stroke-width:0.75;stroke-linecap:butt;stroke-linejoin:miter;stroke-miterlimit:4;stroke-dasharray:none;stroke-opacity:1;marker-end:url(#marker8172)" />
        <path
           inkscape:connector-curvature="0"
           id="path10677"
           d="m -12.36803,199.55719 37.69492,0"
           style="fill:none;stroke:#a1a1a1;stroke-width:0.75;stroke-linecap:butt;stroke-linejoin:miter;stroke-miterlimit:4;stroke-dasharray:none;stroke-opacity:1;marker-end:url(#marker8410)" />
        <path
           style="fill:none;stroke:#a1a1a1;stroke-width:0.75;stroke-linecap:butt;stroke-linejoin:miter;stroke-miterlimit:4;stroke-dasharray:none;stroke-opacity:1;marker-end:url(#marker7366)"
           d="m -12.36803,179.7214 37.69492,0"
           id="path10679"
           inkscape:connector-curvature="0" />
        <path
           inkscape:connector-curvature="0"
           id="path10681"
           d="m -12.36803,179.7214 37.69492,0"
           style="fill:none;stroke:#a1a1a1;stroke-width:0.75;stroke-linecap:butt;stroke-linejoin:miter;stroke-miterlimit:4;stroke-dasharray:none;stroke-opacity:1;marker-end:url(#marker7618)" />
        <path
           style="fill:none;stroke:#a1a1a1;stroke-width:0.75;stroke-linecap:butt;stroke-linejoin:miter;stroke-miterlimit:4;stroke-dasharray:none;stroke-opacity:1;marker-end:url(#marker7844)"
           d="m -12.36803,161.55719 37.69492,0"
           id="path10683"
           inkscape:connector-curvature="0" />
        <path
           inkscape:connector-curvature="0"
           id="path10685"
           d="m -12.36803,141.7214 37.69492,0"
           style="fill:none;stroke:#a1a1a1;stroke-width:0.75;stroke-linecap:butt;stroke-linejoin:miter;stroke-miterlimit:4;stroke-dasharray:none;stroke-opacity:1;marker-end:url(#marker7366)" />
        <path
           style="fill:none;stroke:#a1a1a1;stroke-width:0.75;stroke-linecap:butt;stroke-linejoin:miter;stroke-miterlimit:4;stroke-dasharray:none;stroke-opacity:1;marker-end:url(#marker8828)"
           d="m -12.36803,141.7214 37.69492,0"
           id="path10687"
           inkscape:connector-curvature="0" />
        <path
           style="fill:none;stroke:#a1a1a1;stroke-width:0.75;stroke-linecap:butt;stroke-linejoin:miter;stroke-miterlimit:4;stroke-dasharray:none;stroke-opacity:1;marker-end:url(#marker9078)"
           d="m -12.36803,141.55719 37.69492,0"
           id="path10689"
           inkscape:connector-curvature="0" />
        <path
           inkscape:connector-curvature="0"
           id="path10691"
           d="m -12.36803,121.7214 37.69492,0"
           style="fill:none;stroke:#a1a1a1;stroke-width:0.75;stroke-linecap:butt;stroke-linejoin:miter;stroke-miterlimit:4;stroke-dasharray:none;stroke-opacity:1;marker-end:url(#marker7366)" />
        <path
           style="fill:none;stroke:#a1a1a1;stroke-width:0.75;stroke-linecap:butt;stroke-linejoin:miter;stroke-miterlimit:4;stroke-dasharray:none;stroke-opacity:1;marker-end:url(#marker13432)"
           d="m -12.36803,121.7214 37.69492,0"
           id="path10693"
           inkscape:connector-curvature="0" />
        <path
           inkscape:connector-curvature="0"
           id="path10695"
           d="m -12.36803,103.55719 37.69492,0"
           style="fill:none;stroke:#a1a1a1;stroke-width:0.75;stroke-linecap:butt;stroke-linejoin:miter;stroke-miterlimit:4;stroke-dasharray:none;stroke-opacity:1;marker-end:url(#marker10002)" />
        <g
           id="g10697"
           transform="translate(516.77113,-106.51008)">
          <text
             sodipodi:linespacing="100%"
             id="text10699"
             y="302.08069"
             x="-518.79285"
             style="font-style:normal;font-weight:normal;font-size:12.5px;line-height:100%;font-family:sans-serif;letter-spacing:0px;word-spacing:0px;fill:#999999;fill-opacity:1;stroke:none;stroke-width:1px;stroke-linecap:butt;stroke-linejoin:miter;stroke-opacity:1"
             xml:space="preserve"><tspan
               y="302.08069"
               x="-518.79285"
               id="tspan10701"
               sodipodi:role="line">V</tspan></text>
          <path
             sodipodi:nodetypes="cc"
             style="fill:none;stroke:#a1a1a1;stroke-width:0.75;stroke-linecap:butt;stroke-linejoin:miter;stroke-miterlimit:4;stroke-dasharray:none;stroke-opacity:1;marker-end:url(#marker10282)"
             d="m -519.93458,290.70659 10.95782,0"
             id="path10703"
             inkscape:connector-curvature="0" />
        </g>
      </g>
      <g
         id="g12113"
         transform="translate(120.88808,215.03016)">
        <rect
           y="-35.858688"
           x="-130.44746"
           height="3.0681915"
           width="16.655897"
           id="rect12109"
           style="opacity:1;fill:#999999;fill-opacity:0.31073447;fill-rule:nonzero;stroke:#868686;stroke-width:0.75;stroke-linecap:round;stroke-linejoin:round;stroke-miterlimit:4;stroke-dasharray:none;stroke-dashoffset:0;stroke-opacity:1" />
        <rect
           transform="matrix(0,-1,1,0,0,0)"
           style="opacity:1;fill:#999999;fill-opacity:0.31073447;fill-rule:nonzero;stroke:#868686;stroke-width:0.75;stroke-linecap:round;stroke-linejoin:round;stroke-miterlimit:4;stroke-dasharray:none;stroke-dashoffset:0;stroke-opacity:1"
           id="rect12111"
           width="16.655897"
           height="3.0681915"
           x="25.996643"
           y="-123.65361" />
      </g>
      <g
         id="g12431"
         transform="matrix(0.60934147,0,0,1.000416,-17.279503,233.1995)">
        <path
           sodipodi:nodetypes="cscc"
           style="fill:none;stroke:#868686;stroke-width:0.75;stroke-linecap:butt;stroke-linejoin:miter;stroke-miterlimit:4;stroke-dasharray:none;stroke-opacity:1"
           d="m 41.809569,47.859114 c 33.311794,-1.314939 44.188283,-3.728552 39.009865,-9.20458 0,0 -35.065047,-5.69807 -38.133239,-40.3248042 L 41.809569,-129.65769"
           id="path12107"
           inkscape:connector-curvature="0" />
        <text
           sodipodi:linespacing="100%"
           id="text12119"
           y="40.385098"
           x="41.732174"
           style="font-style:normal;font-weight:normal;font-size:12.5px;line-height:100%;font-family:sans-serif;letter-spacing:0px;word-spacing:0px;fill:#999999;fill-opacity:1;stroke:none;stroke-width:1px;stroke-linecap:butt;stroke-linejoin:miter;stroke-opacity:1"
           xml:space="preserve"><tspan
             y="40.385098"
             x="41.732174"
             id="tspan12121"
             sodipodi:role="line">V<tspan
   style="font-size:64.99999762%;baseline-shift:sub"
   id="tspan12125">rms</tspan></tspan></text>
        <path
           sodipodi:nodetypes="cc"
           inkscape:connector-curvature="0"
           id="path12429"
           d="m 41.00737,48.053946 0,-170.773716"
           style="fill:none;stroke:#000000;stroke-width:0.5;stroke-linecap:butt;stroke-linejoin:miter;stroke-miterlimit:4;stroke-dasharray:0.5, 1;stroke-dashoffset:0;stroke-opacity:1" />
      </g>
    </g>
    <rect
       y="179.79242"
       x="95.282639"
       height="16.263456"
       width="49.497475"
       id="rect10776"
       style="opacity:1;fill:#ffffff;fill-opacity:1;fill-rule:nonzero;stroke:none;stroke-width:4;stroke-linecap:round;stroke-linejoin:round;stroke-miterlimit:4;stroke-dasharray:none;stroke-dashoffset:0;stroke-opacity:1" />
    <text
       xml:space="preserve"
       style="font-style:normal;font-weight:normal;font-size:12.5px;line-height:100%;font-family:sans-serif;letter-spacing:0px;word-spacing:0px;fill:#000000;fill-opacity:1;stroke:none;stroke-width:1px;stroke-linecap:butt;stroke-linejoin:miter;stroke-opacity:1"
       x="110.61867"
       y="191.81326"
       id="text10763"
       sodipodi:linespacing="100%"><tspan
         sodipodi:role="line"
         id="tspan10765"
         x="110.61867"
         y="191.81326">6 </tspan></text>
    <rect
       style="opacity:1;fill:#ffffff;fill-opacity:1;fill-rule:nonzero;stroke:none;stroke-width:4;stroke-linecap:round;stroke-linejoin:round;stroke-miterlimit:4;stroke-dasharray:none;stroke-dashoffset:0;stroke-opacity:1"
       id="rect10785"
       width="53.740116"
       height="16.263456"
       x="258.80109"
       y="276.66605" />
    <text
       sodipodi:linespacing="100%"
       id="text10787"
       y="287.9798"
       x="265.87213"
       style="font-style:normal;font-weight:normal;font-size:12.5px;line-height:100%;font-family:sans-serif;letter-spacing:0px;word-spacing:0px;fill:#000000;fill-opacity:1;stroke:none;stroke-width:1px;stroke-linecap:butt;stroke-linejoin:miter;stroke-opacity:1"
       xml:space="preserve"><tspan
         y="287.9798"
         x="265.87213"
         id="tspan10789"
         sodipodi:role="line">20</tspan></text>
    <rect
       y="276.66605"
       x="114.2706"
       height="16.263456"
       width="53.740116"
       id="rect10791"
       style="opacity:1;fill:#ffffff;fill-opacity:1;fill-rule:nonzero;stroke:none;stroke-width:4;stroke-linecap:round;stroke-linejoin:round;stroke-miterlimit:4;stroke-dasharray:none;stroke-dashoffset:0;stroke-opacity:1" />
    <text
       xml:space="preserve"
       style="font-style:normal;font-weight:normal;font-size:12.5px;line-height:100%;font-family:sans-serif;letter-spacing:0px;word-spacing:0px;fill:#000000;fill-opacity:1;stroke:none;stroke-width:1px;stroke-linecap:butt;stroke-linejoin:miter;stroke-opacity:1"
       x="122.04877"
       y="287.27271"
       id="text10793"
       sodipodi:linespacing="100%"><tspan
         sodipodi:role="line"
         id="tspan10795"
         x="122.04877"
         y="287.27271"> 30</tspan></text>
    <image
       width="6.4101324"
       height="11.538238"
       preserveAspectRatio="none"
       xlink:href="data:image/png;base64,iVBORw0KGgoAAAANSUhEUgAAAB4AAAA2CAYAAADQzyn5AAAABHNCSVQICAgIfAhkiAAAA1NJREFU WIXFmF9ojlEcxz/bXpuZ2KwmQ8qfTVG2XAjzt7gYLlYTZS6QXNiFxHbhbsmVKJJSQv6EKy1FXPi3 0GoZUcNmNWzDzETDNntdnOdtZ+f5PX/O83r51qnnPf2+v8/zPs9zzvmdA/9JaUn604FZQDFQBMwE YsB34B3wCmgGOpPkjNJSJ2k8ROsGrgF7gcJkoMeB4ZBQs/0A1mdEgFYCh1Gv6ZNzE5eBVidxIf6v MAZk2kInAl0O4DGQJ8SUAPfx/9cXbcHlmnluQOwmoMMDvNYWvE8zh3lc2Y6nEfVNvAG220IBTmvg JZbemP4j3dI8Vrsut/QOJQN+r11XA5Ms/ZHBHdr1RKA2KthWZYz+OvuBOf8CnAH0GPBHTr91IhvF gfnAAq1vGvALeGALt9Uy3BPCAFCaajCox2vCW4HcVIMrBHAcqCf5Nd5X6cBLD/iBVIIBdnqAh4Dl qQRnMbJEmu0tkJ8K6CLgiAc00a78TWAF0BIA1NvqZIGlqAnCTNyFf8H3HGM5tFElak7WE74GqlDF QAxo94FviQKtwV1N3sQ9UezyAd+wAcaAU0KSo8jzexaqgPcaXgVhwReEBGcCPHs8wHFgdxjoNsH4 FFW4+Wkc7iUz0U4GQYtR+x7d9A2YHeaOgbMe4Ot+pizgiWCqCwkF2OgBbvYzHRIMPcAEC3AuMOiR R1QO0CcY9ltAE2oT8vz2CpbG4U/kvVGQpBnuixmUKG+rhQT1kiGEuoS+zxJ4JaqAM3UuAhTgq9DX K4E3C4H9wO2I4PFCX7cELhYCG1CVYxRNFfqaJHCREHgnIhTkfXOjFCgN+FURoQUe+cQySAqcHBG8 VcglzlrSbrEP+BARvEHou+QVbN5hS0RoJmoo6bmGgelSsPSPByOCV+Ce1++hSl1R5l1KE0AYHcP9 9Nb4GR4KhtCliqMc4KORI3BI7hDAZZbgWiHH4iBTNmoS103nLaB5uEueE2HNB3F/jSUhfGmoskb3 NqGqmVAag3oneoIG1MmOn+oMTy/q/NpK+YycwCZaG7BQiM1Fbcr02A5gni00oRnALSPhAHAXdVRc gzp57TZiniGvStaqwj08pNaJql6sz5/9zisyUavUOtR7m4Iar+3AC1SRfxVVm1nrD2Ian3MGzLb6 AAAAAElFTkSuQmCC "
       id="image10827"
       x="144.48508"
       y="276.04114" />
    <image
       y="277.45535"
       x="283.71225"
       id="image10829"
       xlink:href="data:image/png;base64,iVBORw0KGgoAAAANSUhEUgAAAB4AAAA2CAYAAADQzyn5AAAABHNCSVQICAgIfAhkiAAAA1NJREFU WIXFmF9ojlEcxz/bXpuZ2KwmQ8qfTVG2XAjzt7gYLlYTZS6QXNiFxHbhbsmVKJJSQv6EKy1FXPi3 0GoZUcNmNWzDzETDNntdnOdtZ+f5PX/O83r51qnnPf2+v8/zPs9zzvmdA/9JaUn604FZQDFQBMwE YsB34B3wCmgGOpPkjNJSJ2k8ROsGrgF7gcJkoMeB4ZBQs/0A1mdEgFYCh1Gv6ZNzE5eBVidxIf6v MAZk2kInAl0O4DGQJ8SUAPfx/9cXbcHlmnluQOwmoMMDvNYWvE8zh3lc2Y6nEfVNvAG220IBTmvg JZbemP4j3dI8Vrsut/QOJQN+r11XA5Ms/ZHBHdr1RKA2KthWZYz+OvuBOf8CnAH0GPBHTr91IhvF gfnAAq1vGvALeGALt9Uy3BPCAFCaajCox2vCW4HcVIMrBHAcqCf5Nd5X6cBLD/iBVIIBdnqAh4Dl qQRnMbJEmu0tkJ8K6CLgiAc00a78TWAF0BIA1NvqZIGlqAnCTNyFf8H3HGM5tFElak7WE74GqlDF QAxo94FviQKtwV1N3sQ9UezyAd+wAcaAU0KSo8jzexaqgPcaXgVhwReEBGcCPHs8wHFgdxjoNsH4 FFW4+Wkc7iUz0U4GQYtR+x7d9A2YHeaOgbMe4Ot+pizgiWCqCwkF2OgBbvYzHRIMPcAEC3AuMOiR R1QO0CcY9ltAE2oT8vz2CpbG4U/kvVGQpBnuixmUKG+rhQT1kiGEuoS+zxJ4JaqAM3UuAhTgq9DX K4E3C4H9wO2I4PFCX7cELhYCG1CVYxRNFfqaJHCREHgnIhTkfXOjFCgN+FURoQUe+cQySAqcHBG8 VcglzlrSbrEP+BARvEHou+QVbN5hS0RoJmoo6bmGgelSsPSPByOCV+Ce1++hSl1R5l1KE0AYHcP9 9Nb4GR4KhtCliqMc4KORI3BI7hDAZZbgWiHH4iBTNmoS103nLaB5uEueE2HNB3F/jSUhfGmoskb3 NqGqmVAag3oneoIG1MmOn+oMTy/q/NpK+YycwCZaG7BQiM1Fbcr02A5gni00oRnALSPhAHAXdVRc gzp57TZiniGvStaqwj08pNaJql6sz5/9zisyUavUOtR7m4Iar+3AC1SRfxVVm1nrD2Ian3MGzLb6 AAAAAElFTkSuQmCC "
       preserveAspectRatio="none"
       height="11.538238"
       width="6.4101324" />
    <image
       y="180.93529"
       x="122.31513"
       id="image10831"
       xlink:href="data:image/png;base64,iVBORw0KGgoAAAANSUhEUgAAAB4AAAA2CAYAAADQzyn5AAAABHNCSVQICAgIfAhkiAAAA1NJREFU WIXFmF9ojlEcxz/bXpuZ2KwmQ8qfTVG2XAjzt7gYLlYTZS6QXNiFxHbhbsmVKJJSQv6EKy1FXPi3 0GoZUcNmNWzDzETDNntdnOdtZ+f5PX/O83r51qnnPf2+v8/zPs9zzvmdA/9JaUn604FZQDFQBMwE YsB34B3wCmgGOpPkjNJSJ2k8ROsGrgF7gcJkoMeB4ZBQs/0A1mdEgFYCh1Gv6ZNzE5eBVidxIf6v MAZk2kInAl0O4DGQJ8SUAPfx/9cXbcHlmnluQOwmoMMDvNYWvE8zh3lc2Y6nEfVNvAG220IBTmvg JZbemP4j3dI8Vrsut/QOJQN+r11XA5Ms/ZHBHdr1RKA2KthWZYz+OvuBOf8CnAH0GPBHTr91IhvF gfnAAq1vGvALeGALt9Uy3BPCAFCaajCox2vCW4HcVIMrBHAcqCf5Nd5X6cBLD/iBVIIBdnqAh4Dl qQRnMbJEmu0tkJ8K6CLgiAc00a78TWAF0BIA1NvqZIGlqAnCTNyFf8H3HGM5tFElak7WE74GqlDF QAxo94FviQKtwV1N3sQ9UezyAd+wAcaAU0KSo8jzexaqgPcaXgVhwReEBGcCPHs8wHFgdxjoNsH4 FFW4+Wkc7iUz0U4GQYtR+x7d9A2YHeaOgbMe4Ot+pizgiWCqCwkF2OgBbvYzHRIMPcAEC3AuMOiR R1QO0CcY9ltAE2oT8vz2CpbG4U/kvVGQpBnuixmUKG+rhQT1kiGEuoS+zxJ4JaqAM3UuAhTgq9DX K4E3C4H9wO2I4PFCX7cELhYCG1CVYxRNFfqaJHCREHgnIhTkfXOjFCgN+FURoQUe+cQySAqcHBG8 VcglzlrSbrEP+BARvEHou+QVbN5hS0RoJmoo6bmGgelSsPSPByOCV+Ce1++hSl1R5l1KE0AYHcP9 9Nb4GR4KhtCliqMc4KORI3BI7hDAZZbgWiHH4iBTNmoS103nLaB5uEueE2HNB3F/jSUhfGmoskb3 NqGqmVAag3oneoIG1MmOn+oMTy/q/NpK+YycwCZaG7BQiM1Fbcr02A5gni00oRnALSPhAHAXdVRc gzp57TZiniGvStaqwj08pNaJql6sz5/9zisyUavUOtR7m4Iar+3AC1SRfxVVm1nrD2Ian3MGzLb6 AAAAAElFTkSuQmCC "
       preserveAspectRatio="none"
       height="11.538238"
       width="6.4101324" />
    <image
       y="112.54114"
       x="267.98508"
       id="image10833"
       xlink:href="data:image/png;base64,iVBORw0KGgoAAAANSUhEUgAAAB4AAAA2CAYAAADQzyn5AAAABHNCSVQICAgIfAhkiAAAA1NJREFU WIXFmF9ojlEcxz/bXpuZ2KwmQ8qfTVG2XAjzt7gYLlYTZS6QXNiFxHbhbsmVKJJSQv6EKy1FXPi3 0GoZUcNmNWzDzETDNntdnOdtZ+f5PX/O83r51qnnPf2+v8/zPs9zzvmdA/9JaUn604FZQDFQBMwE YsB34B3wCmgGOpPkjNJSJ2k8ROsGrgF7gcJkoMeB4ZBQs/0A1mdEgFYCh1Gv6ZNzE5eBVidxIf6v MAZk2kInAl0O4DGQJ8SUAPfx/9cXbcHlmnluQOwmoMMDvNYWvE8zh3lc2Y6nEfVNvAG220IBTmvg JZbemP4j3dI8Vrsut/QOJQN+r11XA5Ms/ZHBHdr1RKA2KthWZYz+OvuBOf8CnAH0GPBHTr91IhvF gfnAAq1vGvALeGALt9Uy3BPCAFCaajCox2vCW4HcVIMrBHAcqCf5Nd5X6cBLD/iBVIIBdnqAh4Dl qQRnMbJEmu0tkJ8K6CLgiAc00a78TWAF0BIA1NvqZIGlqAnCTNyFf8H3HGM5tFElak7WE74GqlDF QAxo94FviQKtwV1N3sQ9UezyAd+wAcaAU0KSo8jzexaqgPcaXgVhwReEBGcCPHs8wHFgdxjoNsH4 FFW4+Wkc7iUz0U4GQYtR+x7d9A2YHeaOgbMe4Ot+pizgiWCqCwkF2OgBbvYzHRIMPcAEC3AuMOiR R1QO0CcY9ltAE2oT8vz2CpbG4U/kvVGQpBnuixmUKG+rhQT1kiGEuoS+zxJ4JaqAM3UuAhTgq9DX K4E3C4H9wO2I4PFCX7cELhYCG1CVYxRNFfqaJHCREHgnIhTkfXOjFCgN+FURoQUe+cQySAqcHBG8 VcglzlrSbrEP+BARvEHou+QVbN5hS0RoJmoo6bmGgelSsPSPByOCV+Ce1++hSl1R5l1KE0AYHcP9 9Nb4GR4KhtCliqMc4KORI3BI7hDAZZbgWiHH4iBTNmoS103nLaB5uEueE2HNB3F/jSUhfGmoskb3 NqGqmVAag3oneoIG1MmOn+oMTy/q/NpK+YycwCZaG7BQiM1Fbcr02A5gni00oRnALSPhAHAXdVRc gzp57TZiniGvStaqwj08pNaJql6sz5/9zisyUavUOtR7m4Iar+3AC1SRfxVVm1nrD2Ian3MGzLb6 AAAAAElFTkSuQmCC "
       preserveAspectRatio="none"
       height="11.538238"
       width="6.4101324" />
    <text
       sodipodi:linespacing="100%"
       id="text4499"
       y="106.63663"
       x="427.65991"
       style="font-style:normal;font-weight:normal;font-size:12.5px;line-height:100%;font-family:sans-serif;letter-spacing:0px;word-spacing:0px;fill:#000000;fill-opacity:1;stroke:none;stroke-width:1px;stroke-linecap:butt;stroke-linejoin:miter;stroke-opacity:1"
       xml:space="preserve"><tspan
         style="font-style:normal;font-variant:normal;font-weight:normal;font-stretch:normal;font-size:20px;font-family:'Comic Sans MS';-inkscape-font-specification:'Comic Sans MS'"
         y="106.63663"
         x="427.65991"
         id="tspan4501"
         sodipodi:role="line">DNS</tspan></text>
    <g
       id="g4969">
      <path
         inkscape:connector-curvature="0"
         id="path4503"
         d="m 58.659915,246.63663 0,22"
         style="fill:none;stroke:#000000;stroke-width:1px;stroke-linecap:butt;stroke-linejoin:miter;stroke-opacity:1;marker-start:url(#StopL);marker-end:url(#StopL)" />
      <image
         width="6.4101324"
         height="11.538238"
         preserveAspectRatio="none"
         xlink:href="data:image/png;base64,iVBORw0KGgoAAAANSUhEUgAAAB4AAAA2CAYAAADQzyn5AAAABHNCSVQICAgIfAhkiAAAA1NJREFU WIXFmF9ojlEcxz/bXpuZ2KwmQ8qfTVG2XAjzt7gYLlYTZS6QXNiFxHbhbsmVKJJSQv6EKy1FXPi3 0GoZUcNmNWzDzETDNntdnOdtZ+f5PX/O83r51qnnPf2+v8/zPs9zzvmdA/9JaUn604FZQDFQBMwE YsB34B3wCmgGOpPkjNJSJ2k8ROsGrgF7gcJkoMeB4ZBQs/0A1mdEgFYCh1Gv6ZNzE5eBVidxIf6v MAZk2kInAl0O4DGQJ8SUAPfx/9cXbcHlmnluQOwmoMMDvNYWvE8zh3lc2Y6nEfVNvAG220IBTmvg JZbemP4j3dI8Vrsut/QOJQN+r11XA5Ms/ZHBHdr1RKA2KthWZYz+OvuBOf8CnAH0GPBHTr91IhvF gfnAAq1vGvALeGALt9Uy3BPCAFCaajCox2vCW4HcVIMrBHAcqCf5Nd5X6cBLD/iBVIIBdnqAh4Dl qQRnMbJEmu0tkJ8K6CLgiAc00a78TWAF0BIA1NvqZIGlqAnCTNyFf8H3HGM5tFElak7WE74GqlDF QAxo94FviQKtwV1N3sQ9UezyAd+wAcaAU0KSo8jzexaqgPcaXgVhwReEBGcCPHs8wHFgdxjoNsH4 FFW4+Wkc7iUz0U4GQYtR+x7d9A2YHeaOgbMe4Ot+pizgiWCqCwkF2OgBbvYzHRIMPcAEC3AuMOiR R1QO0CcY9ltAE2oT8vz2CpbG4U/kvVGQpBnuixmUKG+rhQT1kiGEuoS+zxJ4JaqAM3UuAhTgq9DX K4E3C4H9wO2I4PFCX7cELhYCG1CVYxRNFfqaJHCREHgnIhTkfXOjFCgN+FURoQUe+cQySAqcHBG8 VcglzlrSbrEP+BARvEHou+QVbN5hS0RoJmoo6bmGgelSsPSPByOCV+Ce1++hSl1R5l1KE0AYHcP9 9Nb4GR4KhtCliqMc4KORI3BI7hDAZZbgWiHH4iBTNmoS103nLaB5uEueE2HNB3F/jSUhfGmoskb3 NqGqmVAag3oneoIG1MmOn+oMTy/q/NpK+YycwCZaG7BQiM1Fbcr02A5gni00oRnALSPhAHAXdVRc gzp57TZiniGvStaqwj08pNaJql6sz5/9zisyUavUOtR7m4Iar+3AC1SRfxVVm1nrD2Ian3MGzLb6 AAAAAElFTkSuQmCC "
         id="image4955"
         x="49.313202"
         y="251.97864" />
    </g>
    <g
       id="g4979"
       transform="translate(1017.3656,-5.9589465)">
      <path
         style="fill:none;stroke:#000000;stroke-width:1px;stroke-linecap:butt;stroke-linejoin:miter;stroke-opacity:1"
         d="m -134.75022,268.595 0,24.04163"
         id="path4387"
         inkscape:connector-curvature="0" />
      <path
         inkscape:connector-curvature="0"
         id="path4389"
         d="m -252.75022,268.595 0,24.04163"
         style="fill:none;stroke:#000000;stroke-width:1px;stroke-linecap:butt;stroke-linejoin:miter;stroke-opacity:1" />
      <path
         style="opacity:0.50899999;fill:#e6e6e6;stroke:#000000;stroke-width:1px;stroke-linecap:butt;stroke-linejoin:miter;stroke-opacity:0.24858757"
         d="m -333.21193,266.65807 c 0,-10.6066 47.7943,-21.93426 70.48329,-25.93118 22.689,-3.99693 27.7154,-9.1934 64.30006,-19.36469 36.58466,-10.17129 205.5632803,-15.71428 205.5632803,-15.71428 l -0.0191,61.83591 z"
         id="path4391"
         inkscape:connector-curvature="0"
         sodipodi:nodetypes="czzccc" />
      <path
         style="fill:none;stroke:#000000;stroke-width:2;stroke-linecap:butt;stroke-linejoin:miter;stroke-miterlimit:4;stroke-dasharray:none;stroke-opacity:1"
         d="m -411.34008,85.656371 0,181.827459 418.2031503,0 1.01015,-181.827459 z"
         id="path4393"
         inkscape:connector-curvature="0" />
      <path
         style="fill:none;stroke:#0013be;stroke-width:4;stroke-linecap:butt;stroke-linejoin:miter;stroke-miterlimit:4;stroke-dasharray:none;stroke-opacity:1"
         d="m -333.55834,267.48383 340.4214103,0"
         id="path4395"
         inkscape:connector-curvature="0" />
      <text
         xml:space="preserve"
         style="font-style:normal;font-weight:normal;font-size:12.5px;line-height:100%;font-family:sans-serif;letter-spacing:0px;word-spacing:0px;fill:#000000;fill-opacity:1;stroke:none;stroke-width:1px;stroke-linecap:butt;stroke-linejoin:miter;stroke-opacity:1"
         x="-263.85782"
         y="99.798508"
         id="text4397"
         sodipodi:linespacing="100%"><tspan
           sodipodi:role="line"
           id="tspan4399"
           x="-263.85782"
           y="99.798508"
           style="font-size:15px">freestream</tspan></text>
      <text
         xml:space="preserve"
         style="font-style:normal;font-weight:normal;font-size:12.5px;line-height:100%;font-family:sans-serif;letter-spacing:0px;word-spacing:0px;fill:#000000;fill-opacity:1;stroke:none;stroke-width:1px;stroke-linecap:butt;stroke-linejoin:miter;stroke-opacity:1"
         x="-193.21938"
         y="-394.82043"
         id="text4401"
         sodipodi:linespacing="100%"
         transform="matrix(0,-1,1,0,0,0)"><tspan
           sodipodi:role="line"
           id="tspan4403"
           x="-193.21938"
           y="-394.82043"
           style="font-size:15px">inlet</tspan></text>
      <text
         xml:space="preserve"
         style="font-style:normal;font-weight:normal;font-size:12.5px;line-height:100%;font-family:sans-serif;letter-spacing:0px;word-spacing:0px;fill:#000000;fill-opacity:1;stroke:none;stroke-width:1px;stroke-linecap:butt;stroke-linejoin:miter;stroke-opacity:1"
         x="151.66171"
         y="6.7877498"
         id="text4405"
         sodipodi:linespacing="100%"
         transform="matrix(0,1,-1,0,0,0)"><tspan
           sodipodi:role="line"
           id="tspan4407"
           x="151.66171"
           y="6.7877498"
           style="font-size:15px">outlet</tspan></text>
      <text
         xml:space="preserve"
         style="font-style:normal;font-weight:normal;font-size:12.5px;line-height:100%;font-family:sans-serif;letter-spacing:0px;word-spacing:0px;fill:#0000ff;fill-opacity:1;stroke:none;stroke-width:1px;stroke-linecap:butt;stroke-linejoin:miter;stroke-opacity:1"
         x="-80.212067"
         y="259.50363"
         id="text4409"
         sodipodi:linespacing="100%"><tspan
           sodipodi:role="line"
           id="tspan4411"
           x="-80.212067"
           y="259.50363"
           style="font-size:15px;fill:#0000ff">wall</tspan></text>
      <text
         xml:space="preserve"
         style="font-style:normal;font-weight:normal;font-size:12.5px;line-height:100%;font-family:sans-serif;letter-spacing:0px;word-spacing:0px;fill:#0000ff;fill-opacity:1;stroke:none;stroke-width:1px;stroke-linecap:butt;stroke-linejoin:miter;stroke-opacity:1"
         x="-240.97783"
         y="250.00819"
         id="text4413"
         sodipodi:linespacing="100%"><tspan
           sodipodi:role="line"
           id="tspan4415"
           x="-240.97783"
           y="250.00819"
           style="font-size:15px;fill:#0000ff">transpiration</tspan></text>
      <path
         style="fill:none;stroke:#ec3000;stroke-width:2;stroke-linecap:butt;stroke-linejoin:miter;stroke-miterlimit:4;stroke-dasharray:none;stroke-opacity:1;marker-start:url(#SquareM);marker-end:url(#SquareM)"
         d="m -251.73598,267.48383 117.17769,0"
         id="path4417"
         inkscape:connector-curvature="0" />
      <path
         style="fill:#0000ff;stroke:#142aad;stroke-width:1;stroke-linecap:butt;stroke-linejoin:miter;stroke-miterlimit:4;stroke-dasharray:none;stroke-opacity:1;marker-end:url(#Arrow2Mend)"
         d="m -242.39207,271.01936 0,-16.69139"
         id="path4419"
         inkscape:connector-curvature="0" />
      <path
         inkscape:connector-curvature="0"
         id="path4421"
         d="m -234.39207,271.01936 0,-16.69139"
         style="fill:#0000ff;stroke:#142aad;stroke-width:1;stroke-linecap:butt;stroke-linejoin:miter;stroke-miterlimit:4;stroke-dasharray:none;stroke-opacity:1;marker-end:url(#marker5175)" />
      <path
         style="fill:#0000ff;stroke:#142aad;stroke-width:1;stroke-linecap:butt;stroke-linejoin:miter;stroke-miterlimit:4;stroke-dasharray:none;stroke-opacity:1;marker-end:url(#marker5247)"
         d="m -226.39207,271.01936 0,-16.69139"
         id="path4423"
         inkscape:connector-curvature="0" />
      <path
         inkscape:connector-curvature="0"
         id="path4425"
         d="m -218.39207,271.01936 0,-16.69139"
         style="fill:#0000ff;stroke:#142aad;stroke-width:1;stroke-linecap:butt;stroke-linejoin:miter;stroke-miterlimit:4;stroke-dasharray:none;stroke-opacity:1;marker-end:url(#marker5319)" />
      <path
         style="fill:#0000ff;stroke:#142aad;stroke-width:1;stroke-linecap:butt;stroke-linejoin:miter;stroke-miterlimit:4;stroke-dasharray:none;stroke-opacity:1;marker-end:url(#marker5397)"
         d="m -210.39207,271.01936 0,-16.69139"
         id="path4427"
         inkscape:connector-curvature="0" />
      <path
         inkscape:connector-curvature="0"
         id="path4429"
         d="m -202.39207,271.01936 0,-16.69139"
         style="fill:#0000ff;stroke:#142aad;stroke-width:1;stroke-linecap:butt;stroke-linejoin:miter;stroke-miterlimit:4;stroke-dasharray:none;stroke-opacity:1;marker-end:url(#marker5487)" />
      <path
         style="fill:#0000ff;stroke:#142aad;stroke-width:1;stroke-linecap:butt;stroke-linejoin:miter;stroke-miterlimit:4;stroke-dasharray:none;stroke-opacity:1;marker-end:url(#marker5583)"
         d="m -194.39207,271.01936 0,-16.69139"
         id="path4431"
         inkscape:connector-curvature="0" />
      <path
         inkscape:connector-curvature="0"
         id="path4433"
         d="m -186.39207,271.01936 0,-16.69139"
         style="fill:#0000ff;stroke:#142aad;stroke-width:1;stroke-linecap:butt;stroke-linejoin:miter;stroke-miterlimit:4;stroke-dasharray:none;stroke-opacity:1;marker-end:url(#marker5685)" />
      <path
         style="fill:#0000ff;stroke:#142aad;stroke-width:1;stroke-linecap:butt;stroke-linejoin:miter;stroke-miterlimit:4;stroke-dasharray:none;stroke-opacity:1;marker-end:url(#marker5793)"
         d="m -178.39207,271.01936 0,-16.69139"
         id="path4435"
         inkscape:connector-curvature="0" />
      <path
         inkscape:connector-curvature="0"
         id="path4437"
         d="m -170.39207,271.01936 0,-16.69139"
         style="fill:#0000ff;stroke:#142aad;stroke-width:1;stroke-linecap:butt;stroke-linejoin:miter;stroke-miterlimit:4;stroke-dasharray:none;stroke-opacity:1;marker-end:url(#marker5901)" />
      <path
         style="fill:#0000ff;stroke:#142aad;stroke-width:1;stroke-linecap:butt;stroke-linejoin:miter;stroke-miterlimit:4;stroke-dasharray:none;stroke-opacity:1;marker-end:url(#marker6021)"
         d="m -162.39207,271.01936 0,-16.69139"
         id="path4439"
         inkscape:connector-curvature="0" />
      <path
         style="fill:#0000ff;stroke:#142aad;stroke-width:1;stroke-linecap:butt;stroke-linejoin:miter;stroke-miterlimit:4;stroke-dasharray:none;stroke-opacity:1;marker-end:url(#marker6279)"
         d="m -154.39207,271.01936 0,-16.69139"
         id="path4441"
         inkscape:connector-curvature="0" />
      <path
         inkscape:connector-curvature="0"
         id="path4443"
         d="m -146.39207,271.01936 0,-16.69139"
         style="fill:#0000ff;stroke:#142aad;stroke-width:1;stroke-linecap:butt;stroke-linejoin:miter;stroke-miterlimit:4;stroke-dasharray:none;stroke-opacity:1;marker-end:url(#marker6399)" />
      <path
         style="fill:none;stroke:#000000;stroke-width:1px;stroke-linecap:butt;stroke-linejoin:miter;stroke-opacity:1"
         d="m -333.05327,267.48383 c 0,0 -3.28299,-0.25254 0,0 z"
         id="path4445"
         inkscape:connector-curvature="0"
         sodipodi:nodetypes="cc" />
      <path
         style="fill:none;stroke:#000000;stroke-width:0.75;stroke-linecap:butt;stroke-linejoin:miter;stroke-miterlimit:4;stroke-dasharray:none;stroke-opacity:1;marker-start:url(#Arrow1Mstart);marker-end:url(#Arrow1Mend)"
         d="m -356.28677,87.676676 0,178.797004"
         id="path4447"
         inkscape:connector-curvature="0" />
      <path
         inkscape:connector-curvature="0"
         id="path4449"
         d="m 6.7620503,116.264 -414.9706603,0"
         style="fill:none;stroke:#000000;stroke-width:0.75;stroke-linecap:butt;stroke-linejoin:miter;stroke-miterlimit:4;stroke-dasharray:none;stroke-opacity:1;marker-start:url(#marker7115);marker-end:url(#marker7245)"
         sodipodi:nodetypes="cc" />
      <path
         sodipodi:nodetypes="cc"
         style="fill:none;stroke:#000000;stroke-width:0.75;stroke-linecap:butt;stroke-linejoin:miter;stroke-miterlimit:4;stroke-dasharray:none;stroke-opacity:1;marker-start:url(#marker8571);marker-end:url(#marker8713)"
         d="m -253.45325,282.43409 -76.97362,0"
         id="path4451"
         inkscape:connector-curvature="0" />
      <path
         style="fill:none;stroke:#000000;stroke-width:1px;stroke-linecap:butt;stroke-linejoin:miter;stroke-opacity:1"
         d="m -332.75022,268.595 0,24.04163"
         id="path4453"
         inkscape:connector-curvature="0" />
      <path
         inkscape:connector-curvature="0"
         id="path4455"
         d="m -135.36641,282.43409 -115.15739,0"
         style="fill:none;stroke:#000000;stroke-width:0.75;stroke-linecap:butt;stroke-linejoin:miter;stroke-miterlimit:4;stroke-dasharray:none;stroke-opacity:1;marker-start:url(#marker9105);marker-end:url(#marker9259)"
         sodipodi:nodetypes="cc" />
      <text
         xml:space="preserve"
         style="font-style:normal;font-weight:normal;font-size:12.5px;line-height:100%;font-family:sans-serif;letter-spacing:0px;word-spacing:0px;fill:#999999;fill-opacity:1;stroke:none;stroke-width:1px;stroke-linecap:butt;stroke-linejoin:miter;stroke-opacity:1"
         x="-136.30333"
         y="214.41663"
         id="text4457"
         sodipodi:linespacing="100%"
         transform="matrix(0.99837921,-0.05691174,0.05691174,0.99837921,0,0)"><tspan
           sodipodi:role="line"
           id="tspan4459"
           x="-136.30333"
           y="214.41663">boundary layer</tspan></text>
      <g
         id="g4461"
         transform="translate(-469.92893,-15.142136)">
        <rect
           y="125.34521"
           x="230.51682"
           height="16.263456"
           width="49.497475"
           id="rect4463"
           style="opacity:1;fill:#ffffff;fill-opacity:1;fill-rule:nonzero;stroke:none;stroke-width:4;stroke-linecap:round;stroke-linejoin:round;stroke-miterlimit:4;stroke-dasharray:none;stroke-dashoffset:0;stroke-opacity:1" />
        <text
           sodipodi:linespacing="100%"
           id="text4465"
           y="137.36603"
           x="234.05234"
           style="font-style:normal;font-weight:normal;font-size:12.5px;line-height:100%;font-family:sans-serif;letter-spacing:0px;word-spacing:0px;fill:#000000;fill-opacity:1;stroke:none;stroke-width:1px;stroke-linecap:butt;stroke-linejoin:miter;stroke-opacity:1"
           xml:space="preserve"><tspan
             y="137.36603"
             x="234.05234"
             id="tspan4467"
             sodipodi:role="line">200 </tspan></text>
      </g>
      <rect
         y="178.79242"
         x="-381.71735"
         height="16.263456"
         width="49.497475"
         id="rect4469"
         style="opacity:1;fill:#ffffff;fill-opacity:1;fill-rule:nonzero;stroke:none;stroke-width:4;stroke-linecap:round;stroke-linejoin:round;stroke-miterlimit:4;stroke-dasharray:none;stroke-dashoffset:0;stroke-opacity:1" />
      <text
         xml:space="preserve"
         style="font-style:normal;font-weight:normal;font-size:12.5px;line-height:100%;font-family:sans-serif;letter-spacing:0px;word-spacing:0px;fill:#000000;fill-opacity:1;stroke:none;stroke-width:1px;stroke-linecap:butt;stroke-linejoin:miter;stroke-opacity:1"
         x="-371.64108"
         y="190.81326"
         id="text4471"
         sodipodi:linespacing="100%"><tspan
           sodipodi:role="line"
           id="tspan4473"
           x="-371.64108"
           y="190.81326">93 </tspan></text>
      <rect
         style="opacity:1;fill:#ffffff;fill-opacity:1;fill-rule:nonzero;stroke:none;stroke-width:4;stroke-linecap:round;stroke-linejoin:round;stroke-miterlimit:4;stroke-dasharray:none;stroke-dashoffset:0;stroke-opacity:1"
         id="rect4475"
         width="53.740116"
         height="16.263456"
         x="-218.19891"
         y="275.66605" />
      <text
         sodipodi:linespacing="100%"
         id="text4477"
         y="286.9798"
         x="-211.12787"
         style="font-style:normal;font-weight:normal;font-size:12.5px;line-height:100%;font-family:sans-serif;letter-spacing:0px;word-spacing:0px;fill:#000000;fill-opacity:1;stroke:none;stroke-width:1px;stroke-linecap:butt;stroke-linejoin:miter;stroke-opacity:1"
         xml:space="preserve"><tspan
           y="286.9798"
           x="-211.12787"
           id="tspan4479"
           sodipodi:role="line">20</tspan></text>
      <rect
         y="275.66605"
         x="-320.7294"
         height="16.263456"
         width="53.740116"
         id="rect4481"
         style="opacity:1;fill:#ffffff;fill-opacity:1;fill-rule:nonzero;stroke:none;stroke-width:4;stroke-linecap:round;stroke-linejoin:round;stroke-miterlimit:4;stroke-dasharray:none;stroke-dashoffset:0;stroke-opacity:1" />
      <text
         xml:space="preserve"
         style="font-style:normal;font-weight:normal;font-size:12.5px;line-height:100%;font-family:sans-serif;letter-spacing:0px;word-spacing:0px;fill:#000000;fill-opacity:1;stroke:none;stroke-width:1px;stroke-linecap:butt;stroke-linejoin:miter;stroke-opacity:1"
         x="-312.95123"
         y="286.27271"
         id="text4483"
         sodipodi:linespacing="100%"><tspan
           sodipodi:role="line"
           id="tspan4485"
           x="-312.95123"
           y="286.27271"> 51</tspan></text>
      <image
         width="6.4101324"
         height="11.538238"
         preserveAspectRatio="none"
         xlink:href="data:image/png;base64,iVBORw0KGgoAAAANSUhEUgAAAB4AAAA2CAYAAADQzyn5AAAABHNCSVQICAgIfAhkiAAAA1NJREFU WIXFmF9ojlEcxz/bXpuZ2KwmQ8qfTVG2XAjzt7gYLlYTZS6QXNiFxHbhbsmVKJJSQv6EKy1FXPi3 0GoZUcNmNWzDzETDNntdnOdtZ+f5PX/O83r51qnnPf2+v8/zPs9zzvmdA/9JaUn604FZQDFQBMwE YsB34B3wCmgGOpPkjNJSJ2k8ROsGrgF7gcJkoMeB4ZBQs/0A1mdEgFYCh1Gv6ZNzE5eBVidxIf6v MAZk2kInAl0O4DGQJ8SUAPfx/9cXbcHlmnluQOwmoMMDvNYWvE8zh3lc2Y6nEfVNvAG220IBTmvg JZbemP4j3dI8Vrsut/QOJQN+r11XA5Ms/ZHBHdr1RKA2KthWZYz+OvuBOf8CnAH0GPBHTr91IhvF gfnAAq1vGvALeGALt9Uy3BPCAFCaajCox2vCW4HcVIMrBHAcqCf5Nd5X6cBLD/iBVIIBdnqAh4Dl qQRnMbJEmu0tkJ8K6CLgiAc00a78TWAF0BIA1NvqZIGlqAnCTNyFf8H3HGM5tFElak7WE74GqlDF QAxo94FviQKtwV1N3sQ9UezyAd+wAcaAU0KSo8jzexaqgPcaXgVhwReEBGcCPHs8wHFgdxjoNsH4 FFW4+Wkc7iUz0U4GQYtR+x7d9A2YHeaOgbMe4Ot+pizgiWCqCwkF2OgBbvYzHRIMPcAEC3AuMOiR R1QO0CcY9ltAE2oT8vz2CpbG4U/kvVGQpBnuixmUKG+rhQT1kiGEuoS+zxJ4JaqAM3UuAhTgq9DX K4E3C4H9wO2I4PFCX7cELhYCG1CVYxRNFfqaJHCREHgnIhTkfXOjFCgN+FURoQUe+cQySAqcHBG8 VcglzlrSbrEP+BARvEHou+QVbN5hS0RoJmoo6bmGgelSsPSPByOCV+Ce1++hSl1R5l1KE0AYHcP9 9Nb4GR4KhtCliqMc4KORI3BI7hDAZZbgWiHH4iBTNmoS103nLaB5uEueE2HNB3F/jSUhfGmoskb3 NqGqmVAag3oneoIG1MmOn+oMTy/q/NpK+YycwCZaG7BQiM1Fbcr02A5gni00oRnALSPhAHAXdVRc gzp57TZiniGvStaqwj08pNaJql6sz5/9zisyUavUOtR7m4Iar+3AC1SRfxVVm1nrD2Ian3MGzLb6 AAAAAElFTkSuQmCC "
         id="image4487"
         x="-290.51492"
         y="275.04114" />
      <image
         y="276.45535"
         x="-193.28775"
         id="image4489"
         xlink:href="data:image/png;base64,iVBORw0KGgoAAAANSUhEUgAAAB4AAAA2CAYAAADQzyn5AAAABHNCSVQICAgIfAhkiAAAA1NJREFU WIXFmF9ojlEcxz/bXpuZ2KwmQ8qfTVG2XAjzt7gYLlYTZS6QXNiFxHbhbsmVKJJSQv6EKy1FXPi3 0GoZUcNmNWzDzETDNntdnOdtZ+f5PX/O83r51qnnPf2+v8/zPs9zzvmdA/9JaUn604FZQDFQBMwE YsB34B3wCmgGOpPkjNJSJ2k8ROsGrgF7gcJkoMeB4ZBQs/0A1mdEgFYCh1Gv6ZNzE5eBVidxIf6v MAZk2kInAl0O4DGQJ8SUAPfx/9cXbcHlmnluQOwmoMMDvNYWvE8zh3lc2Y6nEfVNvAG220IBTmvg JZbemP4j3dI8Vrsut/QOJQN+r11XA5Ms/ZHBHdr1RKA2KthWZYz+OvuBOf8CnAH0GPBHTr91IhvF gfnAAq1vGvALeGALt9Uy3BPCAFCaajCox2vCW4HcVIMrBHAcqCf5Nd5X6cBLD/iBVIIBdnqAh4Dl qQRnMbJEmu0tkJ8K6CLgiAc00a78TWAF0BIA1NvqZIGlqAnCTNyFf8H3HGM5tFElak7WE74GqlDF QAxo94FviQKtwV1N3sQ9UezyAd+wAcaAU0KSo8jzexaqgPcaXgVhwReEBGcCPHs8wHFgdxjoNsH4 FFW4+Wkc7iUz0U4GQYtR+x7d9A2YHeaOgbMe4Ot+pizgiWCqCwkF2OgBbvYzHRIMPcAEC3AuMOiR R1QO0CcY9ltAE2oT8vz2CpbG4U/kvVGQpBnuixmUKG+rhQT1kiGEuoS+zxJ4JaqAM3UuAhTgq9DX K4E3C4H9wO2I4PFCX7cELhYCG1CVYxRNFfqaJHCREHgnIhTkfXOjFCgN+FURoQUe+cQySAqcHBG8 VcglzlrSbrEP+BARvEHou+QVbN5hS0RoJmoo6bmGgelSsPSPByOCV+Ce1++hSl1R5l1KE0AYHcP9 9Nb4GR4KhtCliqMc4KORI3BI7hDAZZbgWiHH4iBTNmoS103nLaB5uEueE2HNB3F/jSUhfGmoskb3 NqGqmVAag3oneoIG1MmOn+oMTy/q/NpK+YycwCZaG7BQiM1Fbcr02A5gni00oRnALSPhAHAXdVRc gzp57TZiniGvStaqwj08pNaJql6sz5/9zisyUavUOtR7m4Iar+3AC1SRfxVVm1nrD2Ian3MGzLb6 AAAAAElFTkSuQmCC "
         preserveAspectRatio="none"
         height="11.538238"
         width="6.4101324" />
      <image
         y="179.93529"
         x="-354.68488"
         id="image4491"
         xlink:href="data:image/png;base64,iVBORw0KGgoAAAANSUhEUgAAAB4AAAA2CAYAAADQzyn5AAAABHNCSVQICAgIfAhkiAAAA1NJREFU WIXFmF9ojlEcxz/bXpuZ2KwmQ8qfTVG2XAjzt7gYLlYTZS6QXNiFxHbhbsmVKJJSQv6EKy1FXPi3 0GoZUcNmNWzDzETDNntdnOdtZ+f5PX/O83r51qnnPf2+v8/zPs9zzvmdA/9JaUn604FZQDFQBMwE YsB34B3wCmgGOpPkjNJSJ2k8ROsGrgF7gcJkoMeB4ZBQs/0A1mdEgFYCh1Gv6ZNzE5eBVidxIf6v MAZk2kInAl0O4DGQJ8SUAPfx/9cXbcHlmnluQOwmoMMDvNYWvE8zh3lc2Y6nEfVNvAG220IBTmvg JZbemP4j3dI8Vrsut/QOJQN+r11XA5Ms/ZHBHdr1RKA2KthWZYz+OvuBOf8CnAH0GPBHTr91IhvF gfnAAq1vGvALeGALt9Uy3BPCAFCaajCox2vCW4HcVIMrBHAcqCf5Nd5X6cBLD/iBVIIBdnqAh4Dl qQRnMbJEmu0tkJ8K6CLgiAc00a78TWAF0BIA1NvqZIGlqAnCTNyFf8H3HGM5tFElak7WE74GqlDF QAxo94FviQKtwV1N3sQ9UezyAd+wAcaAU0KSo8jzexaqgPcaXgVhwReEBGcCPHs8wHFgdxjoNsH4 FFW4+Wkc7iUz0U4GQYtR+x7d9A2YHeaOgbMe4Ot+pizgiWCqCwkF2OgBbvYzHRIMPcAEC3AuMOiR R1QO0CcY9ltAE2oT8vz2CpbG4U/kvVGQpBnuixmUKG+rhQT1kiGEuoS+zxJ4JaqAM3UuAhTgq9DX K4E3C4H9wO2I4PFCX7cELhYCG1CVYxRNFfqaJHCREHgnIhTkfXOjFCgN+FURoQUe+cQySAqcHBG8 VcglzlrSbrEP+BARvEHou+QVbN5hS0RoJmoo6bmGgelSsPSPByOCV+Ce1++hSl1R5l1KE0AYHcP9 9Nb4GR4KhtCliqMc4KORI3BI7hDAZZbgWiHH4iBTNmoS103nLaB5uEueE2HNB3F/jSUhfGmoskb3 NqGqmVAag3oneoIG1MmOn+oMTy/q/NpK+YycwCZaG7BQiM1Fbcr02A5gni00oRnALSPhAHAXdVRc gzp57TZiniGvStaqwj08pNaJql6sz5/9zisyUavUOtR7m4Iar+3AC1SRfxVVm1nrD2Ian3MGzLb6 AAAAAElFTkSuQmCC "
         preserveAspectRatio="none"
         height="11.538238"
         width="6.4101324" />
      <image
         y="111.54114"
         x="-209.01492"
         id="image4493"
         xlink:href="data:image/png;base64,iVBORw0KGgoAAAANSUhEUgAAAB4AAAA2CAYAAADQzyn5AAAABHNCSVQICAgIfAhkiAAAA1NJREFU WIXFmF9ojlEcxz/bXpuZ2KwmQ8qfTVG2XAjzt7gYLlYTZS6QXNiFxHbhbsmVKJJSQv6EKy1FXPi3 0GoZUcNmNWzDzETDNntdnOdtZ+f5PX/O83r51qnnPf2+v8/zPs9zzvmdA/9JaUn604FZQDFQBMwE YsB34B3wCmgGOpPkjNJSJ2k8ROsGrgF7gcJkoMeB4ZBQs/0A1mdEgFYCh1Gv6ZNzE5eBVidxIf6v MAZk2kInAl0O4DGQJ8SUAPfx/9cXbcHlmnluQOwmoMMDvNYWvE8zh3lc2Y6nEfVNvAG220IBTmvg JZbemP4j3dI8Vrsut/QOJQN+r11XA5Ms/ZHBHdr1RKA2KthWZYz+OvuBOf8CnAH0GPBHTr91IhvF gfnAAq1vGvALeGALt9Uy3BPCAFCaajCox2vCW4HcVIMrBHAcqCf5Nd5X6cBLD/iBVIIBdnqAh4Dl qQRnMbJEmu0tkJ8K6CLgiAc00a78TWAF0BIA1NvqZIGlqAnCTNyFf8H3HGM5tFElak7WE74GqlDF QAxo94FviQKtwV1N3sQ9UezyAd+wAcaAU0KSo8jzexaqgPcaXgVhwReEBGcCPHs8wHFgdxjoNsH4 FFW4+Wkc7iUz0U4GQYtR+x7d9A2YHeaOgbMe4Ot+pizgiWCqCwkF2OgBbvYzHRIMPcAEC3AuMOiR R1QO0CcY9ltAE2oT8vz2CpbG4U/kvVGQpBnuixmUKG+rhQT1kiGEuoS+zxJ4JaqAM3UuAhTgq9DX K4E3C4H9wO2I4PFCX7cELhYCG1CVYxRNFfqaJHCREHgnIhTkfXOjFCgN+FURoQUe+cQySAqcHBG8 VcglzlrSbrEP+BARvEHou+QVbN5hS0RoJmoo6bmGgelSsPSPByOCV+Ce1++hSl1R5l1KE0AYHcP9 9Nb4GR4KhtCliqMc4KORI3BI7hDAZZbgWiHH4iBTNmoS103nLaB5uEueE2HNB3F/jSUhfGmoskb3 NqGqmVAag3oneoIG1MmOn+oMTy/q/NpK+YycwCZaG7BQiM1Fbcr02A5gni00oRnALSPhAHAXdVRc gzp57TZiniGvStaqwj08pNaJql6sz5/9zisyUavUOtR7m4Iar+3AC1SRfxVVm1nrD2Ian3MGzLb6 AAAAAElFTkSuQmCC "
         preserveAspectRatio="none"
         height="11.538238"
         width="6.4101324" />
      <text
         sodipodi:linespacing="100%"
         id="text4495"
         y="105.63663"
         x="-63.340088"
         style="font-style:normal;font-weight:normal;font-size:12.5px;line-height:100%;font-family:sans-serif;letter-spacing:0px;word-spacing:0px;fill:#000000;fill-opacity:1;stroke:none;stroke-width:1px;stroke-linecap:butt;stroke-linejoin:miter;stroke-opacity:1"
         xml:space="preserve"><tspan
           style="font-style:normal;font-variant:normal;font-weight:normal;font-stretch:normal;font-size:20px;font-family:'Comic Sans MS';-inkscape-font-specification:'Comic Sans MS'"
           y="105.63663"
           x="-63.340088"
           id="tspan4497"
           sodipodi:role="line">RANS</tspan></text>
      <g
         transform="translate(-328.46824,-3.3249804)"
         id="g4973">
        <path
           inkscape:connector-curvature="0"
           id="path4975"
           d="m 58.659915,246.63663 0,22"
           style="fill:none;stroke:#000000;stroke-width:1px;stroke-linecap:butt;stroke-linejoin:miter;stroke-opacity:1;marker-start:url(#StopL);marker-end:url(#StopL)" />
        <image
           width="6.4101324"
           height="11.538238"
           preserveAspectRatio="none"
           xlink:href="data:image/png;base64,iVBORw0KGgoAAAANSUhEUgAAAB4AAAA2CAYAAADQzyn5AAAABHNCSVQICAgIfAhkiAAAA1NJREFU WIXFmF9ojlEcxz/bXpuZ2KwmQ8qfTVG2XAjzt7gYLlYTZS6QXNiFxHbhbsmVKJJSQv6EKy1FXPi3 0GoZUcNmNWzDzETDNntdnOdtZ+f5PX/O83r51qnnPf2+v8/zPs9zzvmdA/9JaUn604FZQDFQBMwE YsB34B3wCmgGOpPkjNJSJ2k8ROsGrgF7gcJkoMeB4ZBQs/0A1mdEgFYCh1Gv6ZNzE5eBVidxIf6v MAZk2kInAl0O4DGQJ8SUAPfx/9cXbcHlmnluQOwmoMMDvNYWvE8zh3lc2Y6nEfVNvAG220IBTmvg JZbemP4j3dI8Vrsut/QOJQN+r11XA5Ms/ZHBHdr1RKA2KthWZYz+OvuBOf8CnAH0GPBHTr91IhvF gfnAAq1vGvALeGALt9Uy3BPCAFCaajCox2vCW4HcVIMrBHAcqCf5Nd5X6cBLD/iBVIIBdnqAh4Dl qQRnMbJEmu0tkJ8K6CLgiAc00a78TWAF0BIA1NvqZIGlqAnCTNyFf8H3HGM5tFElak7WE74GqlDF QAxo94FviQKtwV1N3sQ9UezyAd+wAcaAU0KSo8jzexaqgPcaXgVhwReEBGcCPHs8wHFgdxjoNsH4 FFW4+Wkc7iUz0U4GQYtR+x7d9A2YHeaOgbMe4Ot+pizgiWCqCwkF2OgBbvYzHRIMPcAEC3AuMOiR R1QO0CcY9ltAE2oT8vz2CpbG4U/kvVGQpBnuixmUKG+rhQT1kiGEuoS+zxJ4JaqAM3UuAhTgq9DX K4E3C4H9wO2I4PFCX7cELhYCG1CVYxRNFfqaJHCREHgnIhTkfXOjFCgN+FURoQUe+cQySAqcHBG8 VcglzlrSbrEP+BARvEHou+QVbN5hS0RoJmoo6bmGgelSsPSPByOCV+Ce1++hSl1R5l1KE0AYHcP9 9Nb4GR4KhtCliqMc4KORI3BI7hDAZZbgWiHH4iBTNmoS103nLaB5uEueE2HNB3F/jSUhfGmoskb3 NqGqmVAag3oneoIG1MmOn+oMTy/q/NpK+YycwCZaG7BQiM1Fbcr02A5gni00oRnALSPhAHAXdVRc gzp57TZiniGvStaqwj08pNaJql6sz5/9zisyUavUOtR7m4Iar+3AC1SRfxVVm1nrD2Ian3MGzLb6 AAAAAElFTkSuQmCC "
           id="image4977"
           x="49.313202"
           y="251.97864" />
      </g>
    </g>
    <path
       style="fill:none;stroke:#000000;stroke-width:1px;stroke-linecap:butt;stroke-linejoin:miter;stroke-opacity:1"
       d="m 483.68722,268.21447 21.03904,-16.6559 1.75325,-182.338243 -21.03904,16.6559"
       id="path5040"
       inkscape:connector-curvature="0"
       sodipodi:nodetypes="cccc" />
    <path
       style="fill:none;stroke:#000000;stroke-width:1px;stroke-linecap:butt;stroke-linejoin:miter;stroke-opacity:1"
       d="m 86.045372,69.089337 419.960778,0"
       id="path5046"
       inkscape:connector-curvature="0" />
    <path
       inkscape:connector-curvature="0"
       id="path5052"
       d="M 79.676751,61.659356 56.858997,80.453183"
       style="fill:none;stroke:#000000;stroke-width:1px;stroke-linecap:butt;stroke-linejoin:miter;stroke-opacity:1;marker-start:url(#marker5058);marker-end:url(#marker5230)"
       sodipodi:nodetypes="cc" />
    <image
       width="6.4101324"
       height="11.538238"
       preserveAspectRatio="none"
       xlink:href="data:image/png;base64,iVBORw0KGgoAAAANSUhEUgAAAB4AAAA2CAYAAADQzyn5AAAABHNCSVQICAgIfAhkiAAAA1NJREFU WIXFmF9ojlEcxz/bXpuZ2KwmQ8qfTVG2XAjzt7gYLlYTZS6QXNiFxHbhbsmVKJJSQv6EKy1FXPi3 0GoZUcNmNWzDzETDNntdnOdtZ+f5PX/O83r51qnnPf2+v8/zPs9zzvmdA/9JaUn604FZQDFQBMwE YsB34B3wCmgGOpPkjNJSJ2k8ROsGrgF7gcJkoMeB4ZBQs/0A1mdEgFYCh1Gv6ZNzE5eBVidxIf6v MAZk2kInAl0O4DGQJ8SUAPfx/9cXbcHlmnluQOwmoMMDvNYWvE8zh3lc2Y6nEfVNvAG220IBTmvg JZbemP4j3dI8Vrsut/QOJQN+r11XA5Ms/ZHBHdr1RKA2KthWZYz+OvuBOf8CnAH0GPBHTr91IhvF gfnAAq1vGvALeGALt9Uy3BPCAFCaajCox2vCW4HcVIMrBHAcqCf5Nd5X6cBLD/iBVIIBdnqAh4Dl qQRnMbJEmu0tkJ8K6CLgiAc00a78TWAF0BIA1NvqZIGlqAnCTNyFf8H3HGM5tFElak7WE74GqlDF QAxo94FviQKtwV1N3sQ9UezyAd+wAcaAU0KSo8jzexaqgPcaXgVhwReEBGcCPHs8wHFgdxjoNsH4 FFW4+Wkc7iUz0U4GQYtR+x7d9A2YHeaOgbMe4Ot+pizgiWCqCwkF2OgBbvYzHRIMPcAEC3AuMOiR R1QO0CcY9ltAE2oT8vz2CpbG4U/kvVGQpBnuixmUKG+rhQT1kiGEuoS+zxJ4JaqAM3UuAhTgq9DX K4E3C4H9wO2I4PFCX7cELhYCG1CVYxRNFfqaJHCREHgnIhTkfXOjFCgN+FURoQUe+cQySAqcHBG8 VcglzlrSbrEP+BARvEHou+QVbN5hS0RoJmoo6bmGgelSsPSPByOCV+Ce1++hSl1R5l1KE0AYHcP9 9Nb4GR4KhtCliqMc4KORI3BI7hDAZZbgWiHH4iBTNmoS103nLaB5uEueE2HNB3F/jSUhfGmoskb3 NqGqmVAag3oneoIG1MmOn+oMTy/q/NpK+YycwCZaG7BQiM1Fbcr02A5gni00oRnALSPhAHAXdVRc gzp57TZiniGvStaqwj08pNaJql6sz5/9zisyUavUOtR7m4Iar+3AC1SRfxVVm1nrD2Ian3MGzLb6 AAAAAElFTkSuQmCC "
       id="image5054"
       x="58.833729"
       y="61.117485" />
    <text
       sodipodi:linespacing="100%"
       id="text6476"
       y="72.17868"
       x="48.631836"
       style="font-style:normal;font-weight:normal;font-size:12.5px;line-height:100%;font-family:sans-serif;letter-spacing:0px;word-spacing:0px;fill:#000000;fill-opacity:1;stroke:none;stroke-width:1px;stroke-linecap:butt;stroke-linejoin:miter;stroke-opacity:1"
       xml:space="preserve"><tspan
         y="72.17868"
         x="48.631836"
         id="tspan6478"
         sodipodi:role="line">6 </tspan></text>
    <path
       sodipodi:nodetypes="cczccc"
       inkscape:connector-curvature="0"
       id="path6480"
       d="m 86.950472,251.8788 -0.93092,-20.15301 c 0,0 182.493578,-14.97157 212.714268,-25.14286 30.2207,-10.17129 205.56328,-15.71428 205.56328,-15.71428 l -0.0191,61.83591 z"
       style="opacity:0.50899999;fill:#e6e6e6;fill-opacity:0.31073447;stroke:#000000;stroke-width:1px;stroke-linecap:butt;stroke-linejoin:miter;stroke-opacity:0.24858757" />
  </g>
</svg>
